{
    "0": "Undesignated",
    "1": "Individual",
    "2": "Joint Account",
    "3": "Authorized User",
    "4": "Joint Account",
    "5": "Cosigner",
    "6": "On Behalf Of",
    "7": "Signer",
    "a": "Terminated",
    "b": "Terminated",
    "c": "Terminated",
    "d": "Terminated",
    "e": "Terminated",
    "f": "Terminated",
    "g": "Terminated",
    "h": "Terminated",
    "x": "Deceased"
}