{
    "businessReportConfiguration": {
        "NetConnectSubscriber": "{{NetConnectSubscriber}}",
        "NetConnectPassword": "{{NetConnectPassword}}",
        "NetConnectPasswordHash": "{{NetConnectPasswordHash}}",
        "NetConnectRequestUrl": "https://dm1.experian.com/netconnect2_0Demo/servlets/NetConnectServlet",
        "Eai": "OXOEYRDW",
        "DbHost": "BISTEST",
        "ReferenceId": null,
        "Preamble": "TBD1",
        "OpInitials": "OP",
        "SubCode": "0487130",
        "ArfVersion": "07",
        "VendorNumber": "BIS183",
        "VendorVersion": null,
        "BusinessVerbose": "Y",
        "UseProxy": false,
        "ProxyUrl": null,
        "AddOnsList": "Y",
        "AddOnsBUSP": "Y"
    },
    "personalReportConfiguration": {
        "NetConnectSubscriber": "{{NetConnectSubscriber}}",
        "NetConnectPassword": "{{NetConnectPassword}}",
        "NetConnectPasswordHash": "{{NetConnectPasswordHash}}",
        "NetConnectRequestUrl": "https://dm1.experian.com/netconnect2_0Demo/servlets/NetConnectServlet",
        "Eai": "OXOEYRDW",
        "DbHost": "STAR",
        "ReferenceId": "CAGPP",
        "Preamble": "TBD1",
        "OpInitials": "OP",
        "SubCode": "1940067",
        "ArfVersion": "07",
        "Verbose": "Y",
        "Demographics": "Y",
        "Y2K": "Y",
        "Segment130": "Y",
        "VendorNumber": "969",
        "VendorVersion": "1",
        "UseProxy": false,
        "ProxyUrl": null,
        "AccountType": "3F",
        "RiskModels": "Y",
        "CustomRRDashKeyword": "XXP1"
    },
    "PasswordResetURL": "https://ss3.experian.com/securecontrol/reset/passwordreset",
    "EcalsTransactionUrl": "http://www.experian.com/lookupServlet1?lookupServiceName=AccessPoint&lookupServiceVersion=1.0&serviceName=NetConnectDemo&serviceVersion=2.0&responseType=text/plain",
  	"ExperianHostName":"experian.com",
	"RequiredCertificateVerification": false,
    "DigitalCheckUrl": null		   
}