{
    "UrlSandbox": "https://production.plaid.com/",
    "WebhookUrl": "",
    "isLive": "True",
    "apiurl": "https://production.plaid.com/",
    "proxyUrl": "",
    "clientId": "{{clientId}}",
    "secret": "{{secret}}",
    "useProxy": "true",
    "transactionDays": "365",
    "tlsVersion": "1.2",
    "apiVersion": "v2",
    "SimulationUrl": "http://casimulation.marathon.l4lb.thisdcos.directory:5000/plaid",
    "UseSimulation": "false",
    "DeleteTokenRule": "plaid_token_delete_rule",
    "events": [
        {
            "Name": "AccountAndTransactionRequested",
            "EntityId": "{Data.EntityId}",
            "Response": "{Data.Response}",
            "EntityType": "{Data.EntityType}",
            "MethodToExecute": "ProcessEvent",
            "Rule": "plaid_data_extraction",
            "CompletionEvents": [
                "BankLinked"
            ]
        },
        {
            "Name": "StorePlaidLinkClientData",
            "EntityId": "{Data.EntityId}",
            "Response": "{Data.Response}",
            "EntityType": "{Data.EntityType}",
            "Rule": "plaid_client_data_extraction",
            "MethodToExecute": "PlaidLinkClientData"
        }
    ],
    "clientName": "Capital Alliance",
    "env": "sandbox",
    "PublicKey": "{{PublicKey}}",
    "key": "{{key}}",
    "product": [
        "connect"
    ],
    "EnableBulkTransaction": false,
    "TransactionBatchCount": 500,
    "AccountBatchCount": 10,
    "EnableBulkAccount": true,
    "WaitDurationForTransaction": 5,
    "AsyncTransactionStep": true,
    "CacheSlidingExpiration": 1,
    "selectAccount": true
}