{
    "10": "Account renewed or refinanced",
    "11": "This is an account in good standing",
    "12": "Account/paid satisfactorily",
    "13": "Paid account/zero balance",
    "14": "Current account/was 90 days past due date two times",
    "15": "Current account/was 90 days past due date 3 or more times",
    "16": "Current account/was 120 days past due date 2 or more times",
    "17": "Current account/was 150 days past due date 2 or more times",
    "20": "Credit line closed/reason unknown or by consumer request/there may be balance due",
    "21": "Consumer reported as deceased",
    "22": "Account 60 days past due date 2 times",
    "23": "Account 60 days past due date 3 times",
    "24": "Account 60 days past due date 4 or more times",
    "25": "Account 90 days past due date 2 times",
    "26": "Account 90 days past due date 3 or more times",
    "27": "Account 120 days past due date 2 or more times",
    "28": "Account 150 days past due date 2 or more times",
    "29": "Account 90 days past due date/ was 120 days or more past due date",
    "31": "Current account/was 30 days past due date",
    "32": "Current account/was 30 days past due date two times",
    "33": "Current account/was 30 days past due date three times",
    "34": "Current account/was 30 days past due date four times",
    "35": "Current account/was 30 days past due date five times",
    "36": "Current account/was 30 days past due date six times or more",
    "37": "Current account/was delinquent 60 days past due date",
    "38": "Current account/was delinquent 90 days past due date",
    "39": "Current account/was delinquent 120 days past due date",
    "40": "Current account/was delinquent 150 days past due date",
    "41": "Current account/was delinquent 180 days or more past due date",
    "42": "Account now redeemed/was a repossession",
    "43": "Current account/was a collection account, insurance claim or government claim or terminated for default",
    "45": "Current account/foreclosure was started",
    "51": "Paid account/was 30 days past due date",
    "52": "Paid account/was 30 days past due date two or three times",
    "53": "Paid account/was 30 days past due date four times",
    "54": "Paid account/was 30 days past due date five times",
    "55": "Paid account/was 30 days past due date six times or more",
    "56": "Paid account/was delinquent 60 days past due date",
    "57": "Paid account/was delinquent 90 days past due date",
    "58": "Paid account/was delinquent 120 days past due date",
    "59": "Paid account/was delinquent 150 days past due date",
    "60": "Paid account/was delinquent 180 days or more past due date",
    "61": "Paid account/was a voluntary surrender",
    "62": "Paid account/was a collection account, insurance claim or government claim or was terminated for default",
    "63": "Paid account/was a repossession",
    "64": "Paid account/was a charge-off",
    "65": "Paid account, foreclosure was started",
    "66": "Credit grantor paid by company who originally sold the merchandise",
    "67": "Debt included in or discharged through Bankruptcy Chapter 7, 11, or 12",
    "68": "Account legally paid in full for less than the full balance",
    "69": "Debt included in or discharged through Bankruptcy Chapter 13",
    "71": "Account 30 days past due date",
    "72": "Account 30 days past due date two times",
    "73": "Account 30 days past due date three times",
    "74": "Account 30 days past due date four times",
    "75": "Account 30 days past due date five times",
    "76": "Account 30 days past due date six times or more",
    "77": "Account was delinquent 60 days past due date/now 30 days past due date",
    "78": "Account delinquent 60 days past due date",
    "79": "Account was delinquent 90 days past due date/now 30 or 60 days past due date",
    "80": "Account delinquent 90 days past due date",
    "81": "Account was delinquent 120 days or more past due date/now 30, 60, or 90 days past due date",
    "82": "Account delinquent 120 days past due date",
    "83": "Account delinquent 150 days past due date",
    "84": "Account delinquent 180 days past due date",
    "85": "Credit Grantor could not locate consumer/consumer now located",
    "86": "Now paying/was a charge-off",
    "87": "Foreclosure proceeding started",
    "88": "Claim filed with government for insured portion of balance on loan",
    "89": "Credit grantor received deed for collateral in lieu of foreclosure on a defaulted mortgage",
    "90": "Credit line closed/not paying as agreed",
    "91": "Early termination by default of original terms of lease or sales contract",
    "92": "Claim filed for insured portion of balance",
    "93": "Account seriously past due date/account assigned to attorney, collection agency, or credit grantor's internal collection department",
    "94": "Credit Grantor reclaimed collateral to settle defaulted mortgage",
    "95": "Voluntary surrender",
    "96": "Merchandise was taken back by credit grantor; there may be a balance due",
    "97": "Unpaid balance reported as a loss by credit grantor",
    "98": "Credit grantor cannot locate consumer",
    "00": "No condition/status",
    "03": "Credit card lost or stolen",
    "05": "Account transferred to another office",
    "07": "Current account/was delinquent 60 days past due date two times",
    "08": "Current account/was delinquent 60 days past due date three times",
    "09": "Current account/was delinquent 60 days past due date four or more times",
    "a1": "Open account",
    "a2": "Paid account/zero balance",
    "a3": "Closed account",
    "a4": "Inactive account"
}