{
    "searchname": "UnAssignedApplications",
    "searchFilterView": [],
    "inTagsSearch": [],
    "notInTagsSearch": [],
    "operator": "or",
    "projections": {
        "_id": 0,
        "ApplicationNumber": 1,
        "Submitted": 1,
        "LegalBusinessName": 1,
        "BusinessApplicantName": 1,
        "BusinessPhone": 1,
        "RequestedAmount": 1,
        "ExpiryDate": 1,
        "LeadOwnerUsername": 1,
        "LoanAmount": 1,
        "RepaymentAmount": 1,
        "ApprovedAmount": 1,
        "ProductId": 1,
        "StatusWorkFlowId": 1
    },
    "sorts": {
        "ApplicationNumber": -1
    }
}