{
  "1": "Agriculture / Farming",
  "2": "Auto Repair",
  "3": "Business Services (General)",
  "4": "Car Sales (New / Used)",
  "5": "Construction / Contracting",
  "6": "Education",
  "7": "Financial Services",
  "8": "General Product Sales",
  "9": "Hospitality Services / Hotel / Motel",
  "10": "HVAC / Electrical /Plumbing",
  "11": "Insurance Services",
  "12": "Landscaping / Lawn & Garden Services",
  "13": "Legal Services",
  "14": "Manufacturing",
  "15": "Medical Office / Health Services",
  "16": "Real Estate / Property Management",
  "17": "Restaurant / Food Services",
  "18": "Retail",
  "19": "Tax Services",
  "20": "Transportation Services"
}