{
    "searchname": "RejectedBrokers",
    "searchFilterView": [
        {
            "StatusCode": "M.03"
        }
    ],
    "inTagsSearch": [],
    "notInTagsSearch": [],
    "operator": "or",
    "projections": {
        "_id": 0,
        "PartnerId": 1,
        "BusinessName": 1,
        "Line1": 1,
        "PhoneNumber": 1,
        "StatusChangeDate": 1,
        "ZipCode": 1,
        "State": 1,
        "City": 1
    },
    "sorts": {
        "PartnerId": -1
    }
}