{
    "searchname": "GoodStandingCurrent",
    "searchFilterView": [],
    "inTagsSearch": [
        "DPD 0"
    ],
    "notInTagsSearch": [],
    "operator": "or",
    "projections": {
        "_id": 0,
        "LoanNumber": 1,
        "LoanOnboardedDate": 1,
        "LoanFundedDate": 1,
        "LoanStartDate": 1,
        "LoanEndDate": 1,
        "ProductCategory": 1,
        "CurrentLoanScheduleNumber": 1,
        "CurrentLoanScheduleVersion": 1,
        "LoanAmount": 1,
        "Fundedamount": 1,
        "FundedDate": 1,
        "FirstPaymentDate": 1,
        "PaymentFrequency": 1,
        "FrequecyRate": 1,
        "PrimaryApplicantSalutation": 1,
        "PrimaryApplicantFirstName": 1,
        "PrimaryApplicantLastName": 1,
        "PrimaryApplicantMiddle": 1,
        "PrimaryApplicantPhoneNo": 1,
        "PrimaryApplicantAddressLine1": 1,
        "PrimaryApplicantAddressLine2": 1,
        "PrimaryApplicantCity": 1,
        "PrimaryApplicantState": 1,
        "PrimaryApplicantZip": 1,
        "PrimaryBusinessName": 1,
        "PrimaryBusinessAddressLine1": 1,
        "PrimaryBusinessAddressLine2": 1,
        "PrimaryBusinessCity": 1,
        "PrimaryBusinessState": 1,
        "PrimaryBusinessZip": 1,
        "PrimaryBusinessPhoneNo": 1,
        "Tenure": 1,
        "FactorRate": 1,
        "AnnualRate": 1,
        "StatusCode": 1,
        "StatusName": 1,
        "LoanProductId": 1,
        "StatusWorkFlowId": 1,
        "ProductPortfolioType": 1,
        "PBOC": 1,
        "PBOT": 1,
        "PaymentInfo": 1,
        "Due": 1,
        "ChargeOff": 1,
        "PayOff": 1,
        "SellOff": 1,
        "PaymentDetails": 1,
        "CreditLimit": 1
    },
    "sorts": {
        "LoanNumber": -1
    },
    "exportFields": [
        "LoanNumber",
        "LoanOnboardedDate.Time.DateTime",
        "LoanFundedDate.Time.DateTime",
        "LoanStartDate.Time.DateTime",
        "LoanEndDate.Time.DateTime",
        "ProductCategory",
        "CurrentLoanScheduleNumber",
        "CurrentLoanScheduleVersion",
        "LoanAmount",
        "Fundedamount",
        "FundedDate.Time.DateTime",
        "FirstPaymentDate.Time.DateTime",
        "PaymentFrequency",
        "FrequecyRate",
        "PrimaryApplicantSalutation",
        "PrimaryApplicantFirstName",
        "PrimaryApplicantLastName",
        "PrimaryApplicantMiddle",
        "PrimaryApplicantPhoneNo",
        "PrimaryApplicantAddressLine1",
        "PrimaryApplicantAddressLine2",
        "PrimaryApplicantCity",
        "PrimaryApplicantState",
        "PrimaryApplicantZip",
        "PrimaryBusinessName",
        "PrimaryBusinessAddressLine1",
        "PrimaryBusinessAddressLine2",
        "PrimaryBusinessCity",
        "PrimaryBusinessState",
        "PrimaryBusinessZip",
        "PrimaryBusinessPhoneNo",
        "Tenure",
        "FactorRate",
        "AnnualRate",
        "StatusCode",
        "StatusName",
        "LoanProductId",
        "StatusWorkFlowId",
        "ProductPortfolioType",
        "PBOC.AsOfDatePBOC",
        "PBOC.CummulativeInterestAccured",
        "PBOC.ExpectedCumulativePrincipal",
        "PBOC.CurrentPrincipalOutStanding",
        "PBOC.CurrentInterestOutStanding",
        "PBOT.AsOfDatePBOT",
        "PBOT.TotalPrincipalOutStanding",
        "PBOT.TotalInterestOutstanding",
        "PBOT.TotalFeeOutstanding",
        "PBOT.TotalScheduleInterestDue",
        "PBOT.AdditionalOutStandingInterest",
        "PaymentInfo.CumulativeTotalPaid",
        "PaymentInfo.LastPaymentAmount",
        "PaymentInfo.PaidPrincipalAmount",
        "PaymentInfo.PaidInterestAmount",
        "PaymentInfo.PaidFeeAmount",
        "Due.DPDDays",
        "CreditLimit"
    ],
    "exportFieldNames": [
        "Loan Number",
        "Loan Onboarded Date",
        "Loan Funded Date",
        "Loan Start Date",
        "Loan End Date",
        "Product Category",
        "Loan Schedule Number",
        "Loan Schedule Version",
        "Loan Amount",
        "Funded Amount",
        "Funded Date",
        "First Payment Date",
        "Payment Frequency",
        "Frequecy Rate",
        "Applicant Salutation",
        "Applicant FirstName ",
        "Applicant LastName",
        "Applicant Middle",
        "Applicant PhoneNo",
        "Applicant AddressLine1",
        "Applicant AddressLine2",
        "Applicant City",
        "Applicant State",
        "Applicant Zip",
        "Business Name",
        "Business AddressLine1",
        "Business AddressLine2",
        "Business City",
        "Business State",
        "Business Zip",
        "Business PhoneNo",
        "Tenure",
        "Factor Rate",
        "Annual Rate",
        "Status Code",
        "Status Name",
        "LoanProductId",
        "StatusWorkFlowId",
        "Product Portfolio Type",
        "PBOC AsOfDate",
        "Cummulative Interest Accured",
        "Expected Cumulative Principal",
        "Current Principal OutStanding",
        "Current Interest OutStanding",
        "PBOT AsOfDate",
        "Total Principal OutStanding",
        "Total Interest Outstanding",
        "Total Fee Outstanding",
        "Total Schedule Interest Due",
        "Additional OutStanding Interest",
        "Cumulative Total Paid",
        "Last Payment Amount",
        "Paid Principal Amount",
        "Paid Interest Amount",
        "Paid Fee Amount",
        "DPD Days",
        "CreditLimit"
    ]
}