{
  "name": "loanagreement",
  "title": "Capital Alliance Merchant Agreement",
  "format": "Html",
  "body": "{{body}}",
  "version": "1.0",
  "properties": {
    "pdfSettings": {
      "pageSize": "A4",
      "pageWidth": "21cm",
      "pageHeight": "29.7cm",
      "orientation": "portrait",
      "dpi": 300,
      "imageQuality": 90,
      "marginTop": "10",
      "marginBottom": "10",
      "marginLeft": "10",
      "marginRight": "10"
    },
    "signature": {
      "ReturnUrl": "https://www.google.co.in",
      "BrandId": "eb01e632-b723-45d2-be41-fc079c40d339",
      "DocumentName": "Capital Alliance Merchant Agreement",
      "EmailSubject": "Capital Alliance Merchant Agreement",
      "SignerConfiguration": [
        {
          "RoutingOrder": 1,
          "Tabs": [
            {
              "TabType": "SignHere",
              "Configuration": {
                "AnchorCaseSensitive": true,
                "AnchorMatchWholeWord": true,
                "AnchorString": "SIGNATUREOWNER0",
                "AnchorXOffset": 0,
                "AnchorYOffset": 0,
                "Name": "SignHere",
                "PageNumber": 1,
                "TabOrder": 1,
                "XPosition": 0,
                "YPosition": 0
              }
            }
          ]
        },
        {
          "RoutingOrder": 2,
          "Tabs": [
            {
              "TabType": "SignHere",
              "Configuration": {
                "AnchorCaseSensitive": true,
                "AnchorMatchWholeWord": true,
                "AnchorString": "SIGNATUREOWNER1",
                "AnchorXOffset": 0,
                "AnchorYOffset": 0,
                "Name": "SignHere",
                "PageNumber": 1,
                "TabOrder": 1,
                "XPosition": 0,
                "YPosition": 0
              }
            }
          ]
        },
        {
          "RoutingOrder": 3,
          "Tabs": [
            {
              "TabType": "SignHere",
              "Configuration": {
                "AnchorCaseSensitive": true,
                "AnchorMatchWholeWord": true,
                "AnchorString": "SIGNATUREOWNER2",
                "AnchorXOffset": 0,
                "AnchorYOffset": 0,
                "Name": "SignHere",
                "PageNumber": 1,
                "TabOrder": 1,
                "XPosition": 0,
                "YPosition": 0
              }
            }
          ]
        },
        {
          "RoutingOrder": 4,
          "Tabs": [
            {
              "TabType": "SignHere",
              "Configuration": {
                "AnchorCaseSensitive": true,
                "AnchorMatchWholeWord": true,
                "AnchorString": "SIGNATUREOWNER3",
                "AnchorXOffset": 0,
                "AnchorYOffset": 0,
                "Name": "SignHere",
                "PageNumber": 1,
                "TabOrder": 1,
                "XPosition": 0,
                "YPosition": 0
              }
            }
          ]
        },
        {
          "RoutingOrder": 5,
          "Tabs": [
            {
              "TabType": "SignHere",
              "Configuration": {
                "AnchorCaseSensitive": true,
                "AnchorMatchWholeWord": true,
                "AnchorString": "SIGNATUREOWNER4",
                "AnchorXOffset": 0,
                "AnchorYOffset": 0,
                "Name": "SignHere",
                "PageNumber": 1,
                "TabOrder": 1,
                "XPosition": 0,
                "YPosition": 0
              }
            }
          ]
        }
      ],
      "EventConfigurations": {
        "ListnerUrl": "https://www.google.co.in",
        "GetDocumentFields": true,
        "GetDocuments": false,
        "GetRejectionReason": true,
        "EnableLogging": true,
        "RecipientEvent": [
          {
            "EventType": "Completed",
            "GetDocumetOnEvent": false
          }
        ]
      },
      "ExpirationSetting": {
        "ExpireAfterDays": 2,
        "WarningExpireBeforeDays": 1
      },
      "ReminderSetting": {
        "FirstReminderAfterDays": 1,
        "ReminderInterval": 2
      }
    }
  }
}