{
    "accounting": "Accounting",
    "accrual": "Accrual",
    "amortization": "Amortization",
    "drawdown": "DrawDown",
    "offer": "Offer",
    "onboard": "Onboard",
    "payment": "Payment",
    "settelement": "Settelement",
    "generic":"Generic"
}