{
	"1": "Inventory",
	"2": "Marketing",
	"3": "Bridge",
	"4": "Equipment",
	"5": "Materials",
	"6": "Hire Employees",
	"7": "Payoff Debt/Taxes",
	"8": "Project Financing",
	"9": "Repairs",
	"10": "Other"
}
