{
    "ApplicationApproval": "Application Approval",
    "DrawdownApproval": "Drawdown Approval",
    "Extension": "Extension",
    "DefaultApproval": "Default Approval",
    "LoanServicing": "Loan Servicing"
}