{
    "C": "Confirmed/Verified",
    "Y": "Known to be address of primary consumer",
    "N": "Not Confirmed",
    "B": "Business Address",
    "U": "Non-deliverable address/Returned mail",
    "D": "Data reporter's default address",
    "M": "Military Address",
    "S": "Secondary Address",
    "P": "Bill Payer Service"
}