{
	"1": "Organic",
	"2": "Salesforce",
	"3": "Broker-portal",
	"4": "Navigator",
	"5": "Plum",
	"6": "Blog",
	"7": "Newsletter",
	"8": "Ebook",
	"9": "Blogdrip",
	"10": "Apple",
	"11": "App Out Campaign",
	"12": "Apricot",
	"13": "Banana",
	"14": "Blackberry",
	"15": "Blueberry",
	"16": "Cantaloupe",
	"17": "Cherry",
	"18": "Concrete",
	"19": "Construction",
	"20": "Cranberry",
	"21": "Facebook Ad",
	"22": "Grape",
	"23": "Guava",
	"24": "Lemon",
	"25": "Lime",
	"26": "Mango",
	"27": "MCA",
	"28": "MCA2",
	"29": "Meridian B2B Emails",
	"30": "Orange",
	"31": "Outbound RVM",
	"32": "Peach",
	"33": "Pear",
	"34": "Pineapple",
	"35": "Raspberry",
	"36": "Watermelon",
	"37": "Referral",
	"38": "Strawberry",
	"39": "Trigger Data 17.07.26",
	"40": "UCC"
}