{
	"01": "INSUFFICIENT NUMBER OF VEHICLE LOANS OR LEASES",
	"02": "INSUFFICIENT NUMBER OF BANKCARD ACCOUNTS",
	"03": "TOO MANY BANKCARD ACCOUNTS",
	"04": "TOO MANY FINANCE COMPANY INSTALLMENT LOANS",
	"05": "TOO MANY FINANCE COMPANY LOANS",
	"06": "TOO MANY HOME EQUITY LOANS/LINES",
	"07": "INSUFFICIENT NUMBER OF RETAIL REVOLVING ACCOUNTS",
	"08": "TOO MANY RETAIL REVOLVING ACCOUNTS",
	"09": "INSUFFICIENT NUMBER OF INSTALLMENT ACCOUNTS",
	"10": "INSUFFICIENT NUMBER OF REAL ESTATE ACCOUNTS",
	"11": "INSUFFICIENT NUMBER OF REVOLVING ACCOUNTS",
	"12": "INSUFFICIENT NUMBER OF OPEN ACCOUNTS",
	"13": "INSUFFICIENT NUMBER OF OPEN REVOLVING ACCOUNTS RECENTLY REPORTED",
	"14": "INSUFFICIENT NUMBER OF OPEN BANKCARD ACCOUNTS RECENTLY REPORTED",
	"15": "INSUFFICENT NUMBER OF OPEN INSTALLMENT LOANS RECENTLY REPORTED",
	"16": "INSUFFICIENT NUMBER OF OPEN RETAIL REVOLVING ACCOUNTS RECENTLY REPORTED",
	"17": "INSUFFICIENT NUMBER OF RECENTLY REPORTED ACCOUNTS",
	"18": "TOO MANY RECENTLY OPENED FINANCE COMPANY INSTALLMENT LOANS",
	"19": "TOO MANY RECENTLY OPENED ACCOUNTS",
	"20": "TOO MANY RECENTLY OPENED BANKCARD ACCOUNTS",
	"21": "TOO MANY RECENTLY OPENED FINANCE COMPANY INSTALLMENT LOANS",
	"22": "TOO MANY RECENTLY OPENED INSTALLMENT LOANS",
	"23": "TOO MANY OPEN BANKCARD ACCOUNTS RECENTLY REPORTED",
	"24": "TOO MANY OPEN FINANCE COMPANY LOANS RECENTLY REPORTED",
	"25": "INSUFFICIENT NUMBER OF OPEN REAL ESTATE LOANS RECENTLY REPORTED",
	"26": "TOO MANY OPEN REAL ESTATE LOANS RECENTLY REPORTED",
	"27": "TOO MANY OPEN RETAIL REVOLVING ACCOUNTS WITH A BALANCE OR CREDIT LIMIT",
	"28": "TOO MANY RECENTLY REPORTED OPEN BANKCARD ACCOUNTS WITH A HIGH BALANCE",
	"29": "TOO MANY RECENTLY REPORTED OPEN RETAIL REVOLVING ACCOUNTS WITH A HIGH BALANCE",
	"30": "TOO MANY RECENTLY REPORTED OPEN BANKCARD ACCOUNTS WITH A HIGH RATIO OF BALANCE TO CREDIT LIMIT",
	"31": "TOO MANY RECENTLY REPORTED OPEN REVOLVING ACCOUNTS WITH A HIGH RATIO OF BALANCE TO CREDIT LIMIT",
	"32": "TOO MANY RECENTLY REPORTED OPEN RETAIL REVOLVING ACCOUNTS WITH A HIGH RATIO OF BALANCE TO CREDIT LIMIT",
	"33": "TOO MANY RECENTLY REPORTED PAST DUE ACCOUNTS",
	"34": "TOO MANY RECENTLY REPORTED PAST DUE REVOLVING ACCOUNTS",
	"35": "INSUFFICIENT NUMBER OF VEHICLE LOANS OR LEASES CONSISTENTLY PAID ON TIME IN THE LAST SIX MONTHS",
	"36": "INSUFFICIENT NUMBER OF ACCOUNTS CONSISTENTLY PAID ON TIME IN THE LAST SIX MONTHS",
	"37": "TOO MANY SERIOUSLY DELINQUENT RETAIL ACCOUNTS",
	"38": "TOO MANY SERIOUSLY DELINQUENT RETAIL REVOLVING ACCOUNTS",
	"39": "PRESENCE OF A BANKRUPTCY",
	"40": "TOO MANY SERIOUSLY DELINQUENT ACCOUNTS",
	"41": "TOO MANY ACCOUNTS NOT PAID ON TIME IN THE LAST SIX MONTHS",
	"42": "TOO MANY REVOLVING ACCOUNTS NOT PAID ON TIME IN THE LAST SIX MONTHS",
	"43": "INSUFFICIENT NUMBER OF REVOLVING ACCOUNTS CONSISTENTLY PAID ON TIME OVER THE LAST YEAR",
	"44": "TOO MANY ACCOUNTS NOT PAID ON TIME IN THE LAST TWO YEARS",
	"45": "TOO MANY COLLECTION ACCOUNTS",
	"46": "TOO MANY UNPAID COLLECTION ACCOUNTS",
	"47": "TOO MANY DEROGATORY PUBLIC RECORDS",
	"48": "TOO MANY OUTSTANDING DEROGATORY PUBLIC RECORDS",
	"49": "TOO MANY DELINQUENT ACCOUNTS OR DEROGATORY PUBLIC RECORDS",
	"50": "TOTAL BALANCES ON RECENTLY REPORTED OPEN INSTALLMENT LOANS IS TOO HIGH",
	"51": "TOTAL BALANCES ON RECENTLY REPORTED OPEN REVOLVING ACCOUNTS IS TOO HIGH",
	"52": "AVERAGE CREDIT LIMIT ON RECENTLY REPORTED OPEN BANKCARD ACCOUNTS IS TOO LOW",
	"53": "AVERAGE LOAN AMOUNT ON ALL RECENTLY REPORTED REAL ESTATE LOANS IS TOO LOW",
	"54": "HIGHEST CREDIT LIMIT ON RECENTLY REPORTED OPEN BANKCARD ACCOUNTS IS TOO LOW",
	"55": "TOTAL AVAILABLE CREDIT ON RECENTLY REPORTED OPEN BANKCARD ACCOUNTS IS TOO LOW",
	"56": "AMOUNT PAID DOWN ON RECENTLY REPORTED OPEN INSTALLMENT LOANS IS TOO LOW",
	"57": "AMOUNT PAID DOWN ON RECENTLY REPORTED OPEN REAL ESTATE LOANS IS TOO LOW",
	"58": "TOTAL AVAILABLE CREDIT ON RECENTLY REPORTED OPEN RETAIL REVOLVING ACCOUNTS IS TOO LOW",
	"59": "RATIO OF TOTAL BALANCES TO TOTAL CREDIT LINES ON ALL RECENTLY REPORTED OPEN ACCOUNTS IS TOO HIGH",
	"60": "RATIO OF TOTAL BALANCES TO TOTAL CREDIT LINES ON ALL RECENTLY REPORTED OPEN BANKCARD ACCOUNTS IS TOO HIGH",
	"61": "RATIO OF TOTAL BALANCES TO TOTAL LOAN AMOUNTS ON ALL RECENTLY REPORTED OPEN INSTALLMENT LOANS IS TOO HIGH",
	"62": "RATIO OF TOTAL BALANCES TO TOTAL LOAN AMOUNTS ON ALL RECENTLY REPORTED OPEN REAL ESTATE LOANS IS TOO HIGH",
	"63": "RATIO OF TOTAL BALANCES TO TOTAL CREDIT LINES ON ALL RECENTLY REPORTED OPEN REVOLVING ACCOUNTS IS TOO HIGH",
	"64": "RATIOOFTOTALBALANCESTOTOTALCREDITLINESONALLRECENTLYREPORTEDOPENRETAILREVOLVINGACCOUNTSISTOOHIGH",
	"65": "WORSTDELINQUENCYOCCURRINGONAVEHICLELOANORLEASE",
	"66": "WORSTDELINQUENCYEVEROCCURRINGONANINSTALLMENTLOAN",
	"67": "WORSTDELINQUENCYOCCURRINGONAVEHICLELOANORLEASEREPORTEDINTHELASTYEAR",
	"68": "WORSTDELINQUENCYOCCURRINGONABANKCARDACCOUNTREPORTEDINTHELASTYEAR",
	"69": "WORSTDELINQUENCYOCCURRINGONANINSTALLMENTLOANREPORTEDINTHELASTYEAR",
	"70": "WORSTDELINQUENCYOCCURRINGONAREVOLVINGACCOUNTREPORTEDINTHELASTYEAR",
	"71": "WORSTDELINQUENCYOCCURRINGONARETAILACCOUNTREPORTEDINTHELASTYEAR",
	"72": "WORSTDELINQUENCYOCCURRINGONAVEHICLELOANORLEASEREPORTEDINTHELASTTWOYEARS",
	"73": "WORSTDELINQUENCYOCCURRINGONAREALESTATELOANREPORTEDINTHELASTTWOYEARS",
	"74": "WORSTDELINQUENCYOCCURRINGONAREVOLVINGACCOUNTINTHELASTTWOYEARS",
	"75": "WORSTDELINQUENCYOCCURRINGONANYACCOUNTOPENEDINTHELASTTHREEYEARS",
	"76": "WORSTDELINQUENCYCURRENTLYREPORTEDONANOPENVEHICLELOANORLEASE",
	"77": "WORSTDELINQUENCYCURRENTLYREPORTEDONANOPENACCOUNT",
	"78": "WORSTDELINQUENCYCURRENTLYREPORTEDONANOPENREALESTATELOAN",
	"79": "TIMEOLDESTACCOUNTHASBEENOPENISTOOSHORT",
	"80": "ANINQUIRYHASNEGATIVELYIMPACTEDSCORE",
	"81": "TOOMANYRECENTINQUIRIES",
	"82": "TOOMANYRECENTBANKCARDINQUIRES",
	"83": "TOOMANYRECENTFINANCECOMPANYINQUIRIES",
	"84": "AVERAGETIMEACCOUNTSHAVEBEENOPENISTOOSHORT",
	"85": "AVERAGETIMEREVOLVINGACCOUNTSHAVEBEENOPENISTOOSHORT",
	"86": "TIMESINCEMOSTRECENTDELINQUENCYONANACCOUNTISTOOSHORT",
	"87": "TIMESINCEMOSTRECENTDELINQUENCYONAVEHICLELOANORLEASEISTOOSHORT",
	"88": "TIMESINCEMOSTRECENTDELINQUENCYONAREVOLVINGACCOUNTISTOOSHORT",
	"89": "TIMESINCEMOSTRECENTREPORTEDDEROGATORYONANACCOUNTISTOOSHORT",
	"90": "TIMESINCEMOSTRECENTBANKRUPTCYISTOOSHORT",
	"91": "PERCENTAGEOFACCOUNTSREPORTEDDELINQUENTISTOOHIGH",
	"92": "PERCENTAGEOFACCOUNTSREPORTEDDEROGATORYISTOOHIGH",
	"93": "RATIOOFTOTALINSTALLMENTLOANSTOTOTALACCOUNTSISTOOHIGH",
	"94": "RATIOOFOPENACCOUNTSRECENTLYREPORTEDDELINQUENTTOTOTALOPENACCOUNTSRECENTLYREPORTEDISTOOHIGH"
}