{
	"entities": {
		"Application": [
			{
				"EventName": "ApplicationStatusChanged",
				"EntityId": "{Data.EntityId}",
				"Title": "Application Status Changed",
				"Description": "{{#if OldStatus}}Application status changed from {Data.OldStatusName} to {Data.NewStatusName} {{else}} Application status set to {Data.NewStatusName} {{/if}} {{#if Reason }}with the following reason:{Data.Reason} {{/if}}",
				"Tags": [
					"Application",
					"Status"
				]
			},
			{
				"EventName": "FactVerificationCompleted",
				"EntityId": "{Data.Fact.EntityId}",
				"Title": "Fact verified",
				"Description": "Fact {Data.Fact.FactName} verified for {Data.Fact.EntityId} and result was {Data.Fact.VerificationStatus}",
				"Tags": [
					"{Data.Fact.FactName} {Data.Fact.VerificationStatus}"
				]
			},
			{
				"EventName": "SyndicationCalledEvent",
				"EntityId": "{Data.EntityId}",
				"Title": "Syndication Called",
				"Description": "Syndication {Data.Name} called",
				"Tags": [
					"public"
				]
			},
			{
				"EventName": "ApplicationActivityLogged",
				"EntityId": "{Data.ApplicationNumber}",
				"Title": "{Data.Title}",
				"Description": "{Data.Description}",
				"Tags": [
					"Activity Logged"
				]
			},
			{
				"EventName": "EmailSent",
				"EntityId": "{Data.EntityId}",
				"Title": "{Data.Subject}",
				"Description": "Email was sent with following details : $$ {Data.Body} $$"
			},
			{
				"EventName": "DatamerchSearchMerchantRequested",
				"EntityId": "{Data.EntityId}",
				"Title": "Syndication Called",
				"Description": "Syndication {Data.Name} called",
				"Tags": [
					"syndication"
				]
			},
			{
				"EventName": "BBBSearchSearchOrganizationRequested",
				"EntityId": "{Data.EntityId}",
				"Title": "Syndication Called",
				"Description": "Syndication {Data.Name} called",
				"Tags": [
					"syndication"
				]
			},
			{
				"EventName": "WhitePagesVerifyLeadRequested",
				"EntityId": "{Data.EntityId}",
				"Title": "Syndication Called",
				"Description": "Syndication {Data.Name} called",
				"Tags": [
					"syndication"
				]
			},
			{
				"EventName": "YelpServiceGetPhoneDetailsRequested",
				"EntityId": "{Data.EntityId}",
				"Title": "Syndication Called",
				"Description": "Syndication {Data.Name} called",
				"Tags": [
					"syndication"
				]
			},
			{
				"EventName": "ExperianBusinessSearchPerformed",
				"EntityId": "{Data.EntityId}",
				"Title": "Syndication Called",
				"Description": "Syndication {Data.Name} called",
				"Tags": [
					"syndication"
				]
			},
			{
				"EventName": "ExperianBusinessReportFetched",
				"EntityId": "{Data.EntityId}",
				"Title": "Syndication Called",
				"Description": "Syndication {Data.Name} called",
				"Tags": [
					"syndication"
				]
			},
			{
				"EventName": "ExperianPersonalReportFetched",
				"EntityId": "{Data.EntityId}",
				"Title": "Syndication Called",
				"Description": "Syndication {Data.Name} called",
				"Tags": [
					"syndication"
				]
			},
			{
				"EventName": "PaynetSearchCompanyRequested",
				"EntityId": "{Data.EntityId}",
				"Title": "Syndication Called",
				"Description": "Syndication {Data.Name} called",
				"Tags": [
					"syndication"
				]
			},
			{
				"EventName": "PaynetGetCompanyReportRequested",
				"EntityId": "{Data.EntityId}",
				"Title": "Syndication Called",
				"Description": "Syndication {Data.Name} called",
				"Tags": [
					"syndication"
				]
			},
			{
				"EventName": "BankruptcySearchRequested",
				"EntityId": "{Data.EntityId}",
				"Title": "Syndication Called",
				"Description": "Syndication {Data.Name} called",
				"Tags": [
					"syndication"
				]
			},
			{
				"EventName": "BankruptcyReportRequested",
				"EntityId": "{Data.EntityId}",
				"Title": "Syndication Called",
				"Description": "Syndication {Data.Name} called",
				"Tags": [
					"syndication"
				]
			},
			{
				"EventName": "CriminalRecordSearchRequested",
				"EntityId": "{Data.EntityId}",
				"Title": "Syndication Called",
				"Description": "Syndication {Data.Name} called",
				"Tags": [
					"syndication"
				]
			},
			{
				"EventName": "CriminalRecordReportRequested",
				"EntityId": "{Data.EntityId}",
				"Title": "Syndication Called",
				"Description": "Syndication {Data.Name} called",
				"Tags": [
					"syndication"
				]
			},
			{
				"EventName": "PlaidGetAccountsRequested",
				"EntityId": "{Data.EntityId}",
				"Title": "Syndication Called",
				"Description": "Syndication {Data.Name} called",
				"Tags": [
					"syndication"
				]
			},
			{
				"EventName": "PlaidGetAllBanksRequested",
				"EntityId": "{Data.EntityId}",
				"Title": "Syndication Called",
				"Description": "Syndication {Data.Name} called",
				"Tags": [
					"syndication"
				]
			},
			{
				"EventName": "PlaidGetExchangeTokenRequested",
				"EntityId": "{Data.EntityId}",
				"Title": "Syndication Called",
				"Description": "Syndication {Data.Name} called",
				"Tags": [
					"syndication"
				]
			},
			{
				"EventName": "PlaidGetRiskDataRequested",
				"EntityId": "{Data.EntityId}",
				"Title": "Syndication Called",
				"Description": "Syndication {Data.Name} called",
				"Tags": [
					"syndication"
				]
			},
			{
				"EventName": "PlaidCalculateCashFlowRequested",
				"EntityId": "{Data.EntityId}",
				"Title": "Syndication Called",
				"Description": "Syndication {Data.Name} called",
				"Tags": [
					"syndication"
				]
			},
			{
				"EventName": "YodleeFastLinkAuthenticateUserRequested",
				"EntityId": "{Data.EntityId}",
				"Title": "Syndication Called",
				"Description": "Syndication {Data.Name} called",
				"Tags": [
					"syndication"
				]
			},
			{
				"EventName": "YodleeFastLinkGetAccountTransactionRequested",
				"EntityId": "{Data.EntityId}",
				"Title": "Syndication Called",
				"Description": "Syndication {Data.Name} called",
				"Tags": [
					"syndication"
				]
			},
			{
				"EventName": "YodleeFastLinkGetCobrandTokenRequested",
				"EntityId": "{Data.EntityId}",
				"Title": "Syndication Called",
				"Description": "Syndication {Data.Name} called",
				"Tags": [
					"syndication"
				]
			},
			{
				"EventName": "YodleeFastLinkGetFalstLinkUrlRequested",
				"EntityId": "{Data.EntityId}",
				"Title": "Syndication Called",
				"Description": "Syndication {Data.Name} called",
				"Tags": [
					"syndication"
				]
			},
			{
				"EventName": "YodleeFastLinkGetFastlinkAccessTokenRequested",
				"EntityId": "{Data.EntityId}",
				"Title": "Syndication Called",
				"Description": "Syndication {Data.Name} called",
				"Tags": [
					"syndication"
				]
			},
			{
				"EventName": "YodleeFastLinkGetUserBankAccountRequested",
				"EntityId": "{Data.EntityId}",
				"Title": "Syndication Called",
				"Description": "Syndication {Data.Name} called",
				"Tags": [
					"syndication"
				]
			},
			{
				"EventName": "BankLinked",
				"EntityId": "{Data.EntityId}",
				"Title": "Bank Linked",
				"Description": "Bank Linked",
				"Tags": [
					"BankLinked"
				]
			},
			{
				"EventName": "CashflowVerification",
				"EntityId": "{Data.EntityId}",
				"Title": "CashflowV erification",
				"Description": "Cashflow Verification Completed",
				"Tags": [
					"CashflowVerification"
				]
			},
			{
				"EventName": "PlaidBankVerification",
				"EntityId": "{Data.EntityId}",
				"Title": "Plaid Bank Verification",
				"Description": "Plaid Bank Verification Completed",
				"Tags": [
					"PlaidBankVerification"
				]
			},
			{
				"EventName": "BusinessVerification1",
				"EntityId": "{Data.EntityId}",
				"Title": "Business Verification1",
				"Description": "Business Verification1 Completed",
				"Tags": [
					"BusinessVerification1"
				]
			},
			{
				"EventName": "BusinessVerification2",
				"EntityId": "{Data.EntityId}",
				"Title": "Business Verification2",
				"Description": "Business Verification2 Completed",
				"Tags": [
					"BusinessVerification2"
				]
			},
			{
				"EventName": "CreditCheckVerification",
				"EntityId": "{Data.EntityId}",
				"Title": "CreditCheck Verification",
				"Description": "CreditCheck Verification Completed",
				"Tags": [
					"CreditCheckVerification"
				]
			},
			{
				"EventName": "BusinessTaxIdVerification",
				"EntityId": "{Data.EntityId}",
				"Title": "Business TaxId Verification",
				"Description": "Business TaxId Verification Completed",
				"Tags": [
					"BusinessTaxIdVerification"
				]
			},
			{
				"EventName": "BusinessCreditRiskVerification",
				"EntityId": "{Data.EntityId}",
				"Title": "Business CreditRisk Verification",
				"Description": "Business Review CreditRisk Completed",
				"Tags": [
					"BusinessCreditRiskVerification"
				]
			},
			{
				"EventName": "AgreementDocsOut",
				"EntityId": "{Data.EntityId}",
				"Title": "AgreementDocsOut",
				"Description": "LoanAgreement Document sent",
				"Tags": [
					"AgreementDocsOut"
				]
			},
			{
				"EventName": "LoanAgreementSigned",
				"EntityId": "{Data.EntityId}",
				"Title": "LoanAgreementSigned",
				"Description": "LoanAgreement Signed",
				"Tags": [
					"LoanAgreementSigned"
				]
			},
			{
				"EventName": "ApplicationAssignmentClaimed",
				"EntityId": "{Data.Assignment.EntityId}",
				"Title": "Assignment",
				"Description": "Application {Data.Assignment.EntityId} is claimed by {Data.Assignment.Assignee}",
				"Tags": [
					"userassignment"
				]
			},
			{
				"EventName": "ApplicationAssignmentAssigned",
				"EntityId": "{Data.Assignment.EntityId}",
				"Title": "Assignment",
				"Description": "Application {Data.Assignment.EntityId} is assigned to {Data.Assignment.Assignee}",
				"Tags": [
					"userassignment"
				]
			},
			{
				"EventName": "ApplicationAssignmentUnassigned",
				"EntityId": "{Data.Assignment.EntityId}",
				"Title": "Assignment",
				"Description": "Application {Data.Assignment.EntityId} is unassigned from {Data.Assignment.Assignee}",
				"Tags": [
					"userassignment"
				]
			},
			{
				"EventName": "ApplicationAssignmentReleased",
				"EntityId": "{Data.Assignment.EntityId}",
				"Title": "Assignment",
				"Description": "Application {Data.Assignment.EntityId} is unassigned from {Data.Assignment.Assignee}",
				"Tags": [
					"userassignment"
				]
			},
			{
				"EventName": "VerificationDocumentReceived",
				"EntityId": "{Data.EntityId}",
				"Title": "Document Uploaded",
				"Description": "Document Uploaded-{Data.DocumentName}"
			},
			{
				"EventName": "ExperianPersonalHardPullReportFetched",
				"EntityId": "{Data.EntityId}",
				"Title": "Syndication Called",
				"Description": "Syndication-Experian Personal HardPull Report called for {Data.Request.Firstname}",
				"Tags": [
					"syndication"
				]
			},
			{
				"EventName": "ApplicationPersonalReportHardPullCallNoRecord",
				"EntityId": "{Data.EntityId}",
				"Title": "Syndication Called",
				"Description": "Syndication-Experian Personal HardPull Report called No Record found {Data.Request.Firstname}",
				"Tags": [
					"syndication"
				]
			},
			{
				"EventName": "CashflowUpdated",
				"EntityId": "{Data.EntityId}",
				"Title": "Cashflow Updated",
				"Description": "Cashflow updated for {Data.Response}",
				"Tags": []
			},
			{
				"EventName": "SwitchOwnerCompleted",
				"EntityId": "{Data.EntityId}",
				"Title": "Switch Owner",
				"Description": "Owner switched from {Data.Request.FirstName} {Data.Request.LastName} to {Data.Response.FirstName} {Data.Response.LastName}"
			},
			{
				"EventName": "plaidDelinkPerformed",
				"EntityId": "{Data.EntityId}",
				"Title": "Plaid Access Token Deleted",
				"Description": "Plaid Access Token Delete Perfomed, Delete Access Token Status : {Data.Deleted}.",
				"Tags": [
					"syndication"
				]
			}
		],
		"loan": [
			{
				"EventName": "BankDetailsAdded",
				"EntityId": "{Data.LoanNumber}",
				"Title": "Bank details added",
				"Description": "Details of bank added",
				"Tags": []
			},
			{
				"EventName": "BankDetailsUpdated",
				"EntityId": "{Data.LoanNumber}",
				"Title": "Bank details updated",
				"Description": "Details of bank updated",
				"Tags": []
			},
			{
				"EventName": "LoanOnboarded",
				"EntityId": "{Data.LoanNumber}",
				"Title": "Loan on-boarded",
				"Description": "New Loan on-boarded",
				"Tags": []
			},
			{
				"EventName": "LoanDetailsUpdated",
				"EntityId": "{Data.LoanNumber}",
				"Title": "Loan details updated",
				"Description": "On-boarded loan details updated",
				"Tags": []
			},
			{
				"EventName": "LoanScheduleCreated",
				"EntityId": "{Data.LoanNumber}",
				"Title": "Loan schedule details created",
				"Description": "Loan schedule added for loan",
				"Tags": []
			},
			{
				"EventName": "LoanScheduleUpdated",
				"EntityId": "{Data.LoanNumber}",
				"Title": "Loan schedule details updated",
				"Description": "Loan schedule updated for loan",
				"Tags": []
			},
			{
				"EventName": "AmountExceed",
				"EntityId": "{Data.LoanNumber}",
				"Title": "Amount exceed",
				"Description": "Amount is exceeded",
				"Tags": []
			},
			{
				"EventName": "PaymentReceived",
				"EntityId": "{Data.LoanNumber}",
				"Title": "Payment Received",
				"Description": "Payment received on $#{Data.PaymentInfo.LastPaymentReceivedDate}$#",
				"Tags": []
			},
			{
				"EventName": "PaymentMissed",
				"EntityId": "{Data.LoanNumber}",
				"Title": "Payment Missed",
				"Description": "Payment missed on $#{Data.ProcessingDate}$#",
				"Tags": []
			},
			{
				"EventName": "LoanActivityLogged",
				"EntityId": "{Data.LoanNumber}",
				"Title": "{Data.Title}",
				"Description": "{Data.Description}",
				"Tags": [
					"Activity Logged"
				]
			},
			{
				"EventName": "EmailSent",
				"EntityId": "{Data.EntityId}",
				"Title": "{Data.Subject}",
				"Description": "Email was sent with following details : $$ {Data.Body} $$"
			},
			{
				"EventName": "ChargeOff",
				"EntityId": "{Data.LoanNumber}",
				"Title": "Loan charged off",
				"Description": "Loan charged off on $#{Data.ChargeOff.ChargeOffDate}$#",
				"Tags": []
			},
			{
				"EventName": "SellOff",
				"EntityId": "{Data.LoanNumber}",
				"Title": "Loan sold off",
				"Description": "Loan sold off on $#{Data.SellOff.SellOffDate}$#",
				"Tags": []
			},
			{
				"EventName": "PaidOff",
				"EntityId": "{Data.LoanNumber}",
				"Title": "Loan paid off",
				"Description": "Loan paid off on $#{Data.PaymentInfo.LastPaymentReceivedDate}$#",
				"Tags": []
			},
			{
				"EventName": "CallNoteAdded",
				"EntityId": "{Data.callNote.EntityId}",
				"Title": "Call notes added",
				"Description": "Call notes added  with following details : $$CallNotes$$",
				"Tags": []
			},
			{
				"EventName": "SwitchOwnerCompleted",
				"EntityId": "{Data.EntityId}",
				"Title": "Switch Owner",
				"Description": "Owner switched from {Data.Request.FirstName} {Data.Request.LastName} to {Data.Response.FirstName} {Data.Response.LastName}",
				"Tags": []
			},
			{
				"EventName": "DiscountApplied",
				"EntityId": "{Data.LoanNumber}",
				"Title": "Discount is applied",
				"Description": "Discount is applied",
				"Tags": []
			},
			{
				"EventName": "DiscountReversed",
				"EntityId": "{Data.LoanNumber}",
				"Title": "Discount is reversed",
				"Description": "Discount is reversed",
				"Tags": []
			},
			{
				"EventName": "CallNoteUpdated",
				"EntityId": "{Data.callNote.EntityId}",
				"Title": "Call notes updated",
				"Description": "Call notes updated",
				"Tags": []
			},
			{
				"EventName": "CallRecordingUploaded",
				"EntityId": "{Data.callNote.EntityId}",
				"Title": "Call recording uploaded",
				"Description": "Call recording uploaded  with following details : $$CallNotes$$",
				"Tags": []
			},
			{
				"EventName": "DrawdownCreated",
				"EntityId": "{Data.LoanNumber}",
				"Title": "New drawdown added",
				"Description": "New drawdown added $#{Data.Response.FundedDate.Time}$#",
				"Tags": []
			},
			{
				"EventName": "AccrualStop",
				"EntityId": "{Data.LoanNumber}",
				"Title": "Accrual stopped",
				"Description": "Accrual stopped on $#{Data.AccrualStopDate}$#",
				"Tags": []
			},
			{
				"EventName": "AccrualStarted",
				"EntityId": "{Data.LoanNumber}",
				"Title": "Restarted Accrual",
				"Description": "Restarted Accrual  on $#{Data.Accrual.ProcessingDate}$#",
				"Tags": []
			},
			{
				"EventName": "AutoPayStarted",
				"EntityId": "{Data.LoanNumber}",
				"Title": "Restarted auto pay",
				"Description": "Restarted auto pay on $#{Data.LoanInformation.AutoPayStartDate.Time}$#",
				"Tags": []
			},
			{
				"EventName": "AutoPayStop",
				"EntityId": "{Data.LoanNumber}",
				"Title": "Auto pay paused",
				"Description": "Auto pay paused on $#{Data.LoanInformation.AutoPayStopDate.Time}$#",
				"Tags": []
			},
			{
				"EventName": "FeeApplied",
				"EntityId": "{Data.LoanNumber}",
				"Title": "Fee is applied",
				"Description": "Fee is applied for {Data.FeeName}",
				"Tags": []
			},
			{
				"EventName": "LoanStatusChanged",
				"EntityId": "{Data.EntityId}",
				"Title": "Status is Changed",
				"Description": "Status is changed to {Data.NewStatusName}",
				"Tags": []
			},
			{
				"EventName": "LoanSubStatusChanged",
				"EntityId": "{Data.EntityId}",
				"Title": "Sub-status is Changed",
				"Description": "Sub status is changed to {Data.NewSubStatusName}",
				"Tags": []
			},
			{
				"EventName": "LoanProcessSubWorkFlow",
				"EntityId": "{Data.EntityId}",
				"Title": "Sub workflow initiated",
				"Description": "{Data.NewStatusName} sub workflow initiated",
				"Tags": []
			},
			{
				"EventName": "ReversePayment",
				"EntityId": "{Data.LoanNumber}",
				"Title": "Payment is Reversed",
				"Description": "Payment is reversed",
				"Tags": []
			},
			{
				"EventName": "ReverseFee",
				"EntityId": "{Data.LoanNumber}",
				"Title": "Fee is Reversed",
				"Description": "Fee is reversed",
				"Tags": []
			},
			{
				"EventName": "LoanClosed",
				"EntityId": "{Data.LoanNumber}",
				"Title": "Loan is Closed",
				"Description": "Loan is Closed",
				"Tags": []
			},
			{
				"EventName": "ExcessPaymentModified",
				"EntityId": "{Data.LoanNumber}",
				"Title": "Excess payment modified",
				"Description": "Excess payment modified",
				"Tags": []
			},
			{
				"EventName": "ExcessPaymentAccounted",
				"EntityId": "{Data.LoanNumber}",
				"Title": "Excess payment accounted",
				"Description": "Excess payment accounted",
				"Tags": []
			},
			{
				"EventName": "ExcessPaymentRefunded",
				"EntityId": "{Data.LoanNumber}",
				"Title": "Excess payment refunded",
				"Description": "Excess payment refunded",
				"Tags": []
			},
			{
				"EventName": "ManualFactVerificationInitiated",
				"EntityId": "{Data.EntityId}",
				"Title": "Fact initiated",
				"Description": "{Data.Fact} Fact initiated",
				"Tags": []
			},
			{
				"EventName": "VerificationDocumentReceived",
				"EntityId": "{Data.EntityId}",
				"Title": "Document Uploaded",
				"Description": "{Data.DocumentName} Document Uploaded for the Fact {Data.Fact}",
				"Tags": []
			},
			{
				"EventName": "FactVerificationCompleted",
				"EntityId": "{Data.EntityId}",
				"Title": "Fact verified",
				"Description": "{Data.FactName} Fact verified",
				"Tags": []
			},
			{
				"EventName": "FailedPayment",
				"EntityId": "{Data.EntityId}",
				"Title": "Fact verified",
				"Description": "Payment Failed",
				"Tags": []
			},
			{
				"EventName": "LoanModCreated",
				"EntityId": "{Data.LoanNumber}",
				"Title": "Loan mod created",
				"Description": "Loan Mod Created",
				"Tags": []
			}
		]
	}
}