{
    "PurposeOfLoan": "purposeofloan",
    "BusinessTypes": "businesstypes",
    "Industry": "industry",
    "PropertyType": "propertytype",
    "AddressType": "addressType",
    "OwnershipType": "ownershipType",
    "SourceType": "sourceType",
    "LoanTimeFrame": "loanTimeFrame",
    "PaymentType": "paymentType",
    "State": "state"
}