{
    "FieldsConfig": [
        {
            "Name": "FirstName",
            "IsUnique": true
        },
        {
            "Name": "LastName",
            "IsUnique": true
        },
        {
            "Name": "Dob",
            "ApplyHash": true,
            "IsUnique": true
        },
        {
            "Name": "Phone",
            "IsUnique": true
        },
        {
            "Name": "Email",
            "IsUnique": true
        },
        {
            "Name": "Ssn",
            "ApplyHash": true,
            "IsUnique": true,
            "CheckDuplicacy": true
        },
        {
            "Name": "Fein",
            "ApplyHash": true,
            "IsUnique": true
        },
        {
            "Name": "BusinessName",
            "IsUnique": true
        },
        {
            "Name": "BusinessTaxId",
            "ApplyHash": true,
            "IsUnique": true,
            "CheckDuplicacy": true,
            "IsBusinessField": true
        },
        {
            "Name": "BusinessPhone",
            "IsUnique": true
        },
        {
            "Name": "Ein",
            "ApplyHash": true,
            "IsUnique": true
        }
    ],
    "Events": [
        {
            "Name": "ApplicationCreated",
            "EntityId": "{Data.Application.ApplicationNumber}",
            "EntityType": "{Data.EntityType}",
            "ProductId": "{Data.Application.ProductId}",
            "Rule": "getconsumerlist",
            "UpdateConsumerData": true,
            "UpdateReferenceEntityStatus": false
        },
        {
            "Name": "ApplicationModified",
            "EntityId": "{Data.Application.ApplicationNumber}",
            "EntityType": "{Data.EntityType}",
            "ProductId": "{Data.Application.ProductId}",
            "Rule": "getconsumerlist",
            "UpdateConsumerData": true,
            "UpdateReferenceEntityStatus": false
        },
        {
            "Name": "ApplicationStatusChanged",
            "EntityId": "{Data.EntityId}",
            "EntityType": "{Data.EntityType}",
            "Rule": null,
            "UpdateConsumerData": false,
            "UpdateReferenceEntityStatus": true
        }
    ]
}