{
  "CriskcoCredential": {
    "appId": "dica8127",
    "appToken": "{{appToken}}"
  },
  "ApiBaseUrl": "https://service.criskco.com/ApiService.svc/GetApproveBusiness?id=11111",
  "events": [
    {
      "Name": "CriskcoReportRequested",
      "EntityId": "{Data.EntityId}",
      "Response": "{Data.Response}",
      "EntityType": "{Data.EntityType}",
      "MethodToExecute": "CriskcoReportEventHandler",
      "CompletionEventName": ""
    }
  ]
}