{
  "Statuses": {
    "Cancelled": "600.10",
    "Declined": "600.40",
    "Verification": "200.20",
    "Review": "200.30",
    "Approved": "200.40",
    "Rejected": "200.50",
    "Funding": "200.60",
    "FundingFailed": "200.70",
    "FundingPassed": "200.80"
  },
  "AutoLoanSchedule": true,
  "events": [
    {
      "Name": "ApplicationFundingStatusUpdated",
      "EntityId": "{Data.EntityId}",
      "Response": "{Data.Response}",
      "EntityType": "{Data.EntityType}",
      "MethodToExecute": "FundingStatusHandler"
    }
  ]
}