{
    "borrower": {
        "en": {
            "app.components.ApplicantSortDetails.loanApplied": "Loan Applied",
            "app.components.ApplicantSortDetails.purposeOfFund": "Purpose of funds",
            "app.components.ApplicantSortDetails.applicationNumberHeading": "App",
            "app.components.ApplicantSortDetails.loan": "Loan",
            "app.components.ApplicantSortDetails.reapplyButton": "Reapply",
            "app.components.ApplicantSortDetails.reapplyPopupHeader": "Re-Apply Confirmation Message",
            "app.components.ApplicantSortDetails.reapplyPopupBody": "Are you sure you want to re-apply the loan application ?",
            "app.components.ApplicantSortDetails.reapplyPopupSuccessButton": "Yes",
            "app.components.ApplicantSortDetails.reapplyPopupCloseButton": "No",
            "app.components.BankLink.header": "Bank Verification",
            "app.components.BankLink.connectButtonHeader": "Fast Processing",
            "app.components.BankLink.connectButton": "Link bank account",
            "app.components.BankLink.accountNumber": "Account Number",
            "app.components.BankLink.instituteName": "Bank Name",
            "app.components.BankLink.accountName": "Account Name",
            "app.components.BankLink.type": "Type",
            "app.components.BankLink.voidedCheck": "Voided Check",
            "app.components.BankLink.uploadThreeBankStatement": "Upload 3 recent months bank statements",
            "app.components.BankLink.linkBankInfoLine1": "Link your bank statements electronically (Recommended)",
            "app.components.BankLink.linkBankInfoLine2": "Your Bank will automatically send us your statements",
            "app.components.BankLink.linkBankInfoLine3": "Our automated underwriting system will review your statements for offers in less than 24 hours",
            "app.components.BankLink.linkBankInfoLine4": "We use cutting-edge encryption technology to keep your information safe and secure",
            "app.components.BankLink.or": "OR",
            "app.components.BankLink.manualReview": "Manual Review",
            "app.components.BankLink.manualReviewInfoLine1": "Upload or send us your bank statements",
            "app.components.BankLink.manualReviewInfoLine2": "This process is typically slower as you have to fax or upload your documents",
            "app.components.BankLink.manualReviewInfoLine3": "We then manually go through your documents and make a decision",
            "app.components.BankLink.notAvailable": "N/A",
            "app.components.BasicDetail.firstNameLabel": "First Name",
            "app.components.BasicDetail.firstNamePlaceholder": "First Name",
            "app.components.BasicDetail.firstNameRequiredValidation": "First Name is required",
            "app.components.BasicDetail.firstNameLengthValidation": "Field length must be between 2 and 100",
            "app.components.BasicDetail.firstNameNumberSpecialCharacterValidation": "Numbers or special characters not allowed",
            "app.components.BasicDetail.lastNameLabel": "Last Name",
            "app.components.BasicDetail.lastNamePlaceholder": "Last Name",
            "app.components.BasicDetail.lastNameRequiredValidation": "Last Name is required",
            "app.components.BasicDetail.lastNameLengthValidation": "Field length must be between 2 and 100",
            "app.components.BasicDetail.lastNameNumberSpecialCharacterValidation": "Numbers or special characters not allowed",
            "app.components.BasicDetail.primaryPhoneLabel": "Primary Phone",
            "app.components.BasicDetail.primaryPlaceholder": "Primary Phone #",
            "app.components.BasicDetail.primaryPhoneRequiredValidation": "Primary Phone is required",
            "app.components.BasicDetail.primaryPhoneInvalid": "Invalid Primary Phone",
            "app.components.BasicDetail.passwordLabel": "Password",
            "app.components.BasicDetail.passwordPlaceholder": "Password",
            "app.components.BasicDetail.passwordRequiredValidation": "Password is required",
            "app.components.BasicDetail.passwordRegexValidation": "Password must be eight characters including one uppercase letter, one special character and alphanumeric characters",
            "app.components.BasicDetail.confirmPasswordLabel": "Confirm Password",
            "app.components.BasicDetail.confirmPasswordPlaceholder": "Confirm Password",
            "app.components.BasicDetail.confirmPasswordRequiredValidation": "Confirm Password is required",
            "app.components.BasicDetail.confirmPasswordMismatchPassword": "Confirm password is not the same as password",
            "app.components.BasicDetail.emailAddressLabel": "Username",
            "app.components.BasicDetail.emailAddressPlaceholder": "Email Address",
            "app.components.BasicDetail.emailAddressRequiredValidation": "Username is required",
            "app.components.BasicDetail.emailAddressInvalid": "Invalid Email Address",
            "app.components.BasicDetail.requestedAmountLabel": "How much do you need?",
            "app.components.BasicDetail.requestedAmountRequiredValidation": "Requested Amount is required",
            "app.components.BasicDetail.loanTimeFrameLabel": "How soon do you need it?",
            "app.components.BasicDetail.loanTimeFrameRequiredValidation": "Loan time frame is required",
            "app.components.BasicDetail.purposeOfLoanLabel": "Purpose of funds?",
            "app.components.BasicDetail.purposeOfLoanRequiredValidation": "Purpose of loan is required",
            "app.components.BasicDetail.nextButton": "Next",
            "app.components.BasicDetail.cancelButton": "Cancel",
            "app.components.BreadCrumb.homeLink": "Home",
            "app.components.BreadCrumb.homeLinkIcon": "Home",
            "app.components.BreadCrumb.changePassword": "Change Password",
            "app.components.BreadCrumb.changePasswordIcon": "fa fa-lock",
            "app.components.BreadCrumb.overview": "Overview",
            "app.components.BreadCrumb.overviewIcon": "fa fa-user",
            "app.components.BreadCrumb.toDo": "To Do's",
            "app.components.BreadCrumb.toDoIcon": "fa fa-check-square-o",
            "app.components.BreadCrumb.profile": "Profile",
            "app.components.BreadCrumb.profileIcon": "fa fa-user",
            "app.components.BreadCrumb.loanDetails": "Loan Details",
            "app.components.BreadCrumb.loanDetailsIcon": "fa fa-file-text",
            "app.components.BreadCrumb.transactions": "Transactions",
            "app.components.BreadCrumb.transactionsIcon": "fa fa-indent",
            "app.components.BreadCrumb.upcomingPayments": "Upcoming Payments",
            "app.components.BreadCrumb.upcomingPaymentsIcon": "fa fa-calendar",
            "app.components.BreadCrumb.estimatePayOff": "Estimate Pay-Off",
            "app.components.BreadCrumb.estimatePayOffIcon": "fa fa-chain",
            "app.components.BreadCrumb.makePayment": "Make Payment",
            "app.components.BreadCrumb.makePaymentIcon": "fa fa-money",
            "app.components.BreadCrumb.drawdown": "Make A Draw",
            "app.components.BreadCrumb.drawdownIcon": "fa fa-level-down",
            "app.components.BusinessDetail.legalCompanyNameLabel": "Legal Company Name",
            "app.components.BusinessDetail.legalCompanyNamePlaceholder": "Legal Company Name",
            "app.components.BusinessDetail.legalCompanyNameRequiredValidation": "Legal Business Name is required",
            "app.components.BusinessDetail.legalCompanyNameLengthValidation": "Field length must be between 2 and 100",
            "app.components.BusinessDetail.businessAddressLabel": "Business Address",
            "app.components.BusinessDetail.businessAddressPlaceholder": "Business Address",
            "app.components.BusinessDetail.businessAddressRequiredValidation": "Business Address is required",
            "app.components.BusinessDetail.businessAddressLengthValidation": "Field length must be between 2 and 100",
            "app.components.BusinessDetail.dbaLabel": "DBA",
            "app.components.BusinessDetail.dbaPlaceholder": "DBA",
            "app.components.BusinessDetail.cityLabel": "City",
            "app.components.BusinessDetail.cityPlaceholder": "City",
            "app.components.BusinessDetail.cityRequiredValidation": "City is required",
            "app.components.BusinessDetail.cityLengthValidation": "Field length must be between 2 and 100",
            "app.components.BusinessDetail.cityNumberSpecialCharacterValidation": "Numbers or special characters not allowed",
            "app.components.BusinessDetail.stateLabel": "State",
            "app.components.BusinessDetail.statePlaceholder": "State",
            "app.components.BusinessDetail.stateRequiredValidation": "State is required",
            "app.components.BusinessDetail.postalCodeLabel": "Postal Code",
            "app.components.BusinessDetail.postalCodePlaceholder": "Postal Code",
            "app.components.BusinessDetail.postalCodeRequiredValidation": "Postal Code is required",
            "app.components.BusinessDetail.postalCodeInvalid": "Invalid Postal Code",
            "app.components.BusinessDetail.businessTaxIdLabel": "Business Tax ID",
            "app.components.BusinessDetail.businessTaxIdPlaceholder": "Business Tax ID",
            "app.components.BusinessDetail.businessTaxIdRequiredValidation": "Business Tax ID is required",
            "app.components.BusinessDetail.businessTaxIdLengthValidation": "Field length must be 9",
            "app.components.BusinessDetail.dateOfBirthLabel": "Date Established",
            "app.components.BusinessDetail.dateOfBirthRequiredValidation": "Date established is required",
            "app.components.BusinessDetail.dateOfBirthInvalid": "Invalid Date",
            "app.components.BusinessDetail.dateOfBirthFutureDateInvalid": "Date established can not be a future date",
            "app.components.BusinessDetail.homeOwnerTypeLabel": "Rent Or Own this location?",
            "app.components.BusinessDetail.homeOwnerTypeRequiredValidation": "Property type is required",
            "app.components.BusinessDetail.industryLabel": "Industry",
            "app.components.BusinessDetail.industryRequiredValidation": "Industry is required",
            "app.components.BusinessDetail.entityTypeLabel": "Entity Type",
            "app.components.BusinessDetail.entityTypeRequiredValidation": "Entity type is required",
            "app.components.BusinessDetail.nextButton": "Next",
            "app.components.BusinessDetail.cancelButton": "Cancel",
            "app.components.DocumentUpload.header": "Upload Documents",
            "app.components.DocumentUpload.voidedCheck": "Voided Check",
            "app.components.DocumentUpload.photoID": "Photo ID",
            "app.components.DocumentUpload.contract": "Contract",
            "app.components.DocumentUpload.taxReturn": "Tax Return",
            "app.components.DocumentUpload.confession": "Confession",
            "app.components.DocumentUpload.lien": "Lien",
            "app.components.DocumentUpload.proofOfproperty": "Proof Of Property",
            "app.components.DocumentUpload.merchant": "Merchant",
            "app.components.DrawdownList.header": "Draw Details",
            "app.components.DrawdownList.drawdownTableHeader": "Drawdown",
            "app.components.DrawdownList.amountTableHeader": "Amount",
            "app.components.DrawdownList.dateTableHeader": "Date",
            "app.components.DrawdownList.statusTableHeader": "Status",
            "app.components.DrawdownList.noDrawAvailableMessage": "No drawdowns available",
            "app.components.EstimatePayOffSummary.asOfDate": "As of Date",
            "app.components.EstimatePayOffSummary.principalOutstanding": "Principal Outstanding",
            "app.components.EstimatePayOffSummary.financeChargeOutstanding": "Finance Charge Outstanding",
            "app.components.EstimatePayOffSummary.interestOustanding": "Interest Outstanding",
            "app.components.EstimatePayOffSummary.payOffDate": "Pay-Off Date",
            "app.components.EstimatePayOffSummary.principal": "Principal",
            "app.components.EstimatePayOffSummary.financeCharge": "Finance Charge",
            "app.components.EstimatePayOffSummary.interest": "Interest",
            "app.components.EstimatePayOffSummary.totalToBePaid": "Total to be paid",
            "app.components.EstimatePayOffSummary.noDataAvailable": "No data available",
            "app.components.FileDropZone.uploadText": "Drop files here to upload",
            "app.components.FileDropZone.uploadButton": "Upload File",
            "app.components.Files.fileDiscardImage": "",
            "app.components.Files.fileImage": "",
            "app.components.FinalDetail.annualRevenueLabel": "Annual Revenue",
            "app.components.FinalDetail.annualRevenuePlaceholder": "Annual Revenue",
            "app.components.FinalDetail.annualRevenueRequiredValidation": "Annual Revenue is required",
            "app.components.FinalDetail.annualRevenueLengthValidation": "Maximum Annual Revenue is 9999999999999999999",
            "app.components.FinalDetail.averageBankBalanceLabel": "Average Bank Balance",
            "app.components.FinalDetail.averageBankBalancePlaceholder": "Average Bank Balance",
            "app.components.FinalDetail.averageBankBalanceRequiredValidation": "Average Bank Balance is required",
            "app.components.FinalDetail.averageBankBalanceLengthValidation": "Maximum Average Bank Balance is 9999999999999999999",
            "app.components.FinalDetail.haveExistingLoanRequiredValidation": "Existing Loan Status is required",
            "app.components.FinalDetail.consentsSignValidation": "Please check consent checkbox",
            "app.components.FinalDetail.consentIAgree": "I agree to the ",
            "app.components.FinalDetail.termsAndCondition": "Terms and Conditions",
            "app.components.FinalDetail.nextButton": "Submit",
            "app.components.FinalDetail.cancelButton": "Cancel",
            "app.components.FinalDetail.haveExistingLoanLabel": "Do you have any existing business loans or cash advance?",
            "app.components.FinalDetail.popupHeader": "Do you have any existing business loans or cash advance?",
            "app.components.FinalDetail.popupBody": "You are cancelling re-application of loan request. You will be redirected to log in page now.",
            "app.components.FinalDetail.popupYesButton": "OK",
            "app.components.FinalDetail.popupNoButton": "Cancel",
            "app.components.HeaderLinks.changePassword": "Change Password",
            "app.components.HeaderLinks.logOut": "Log out",
            "app.components.HeaderLinks.overview": "Overview",
            "app.components.HeaderLinks.toDo": "To Do's",
            "app.components.HeaderLinks.signIn": "Sign In",
            "app.components.HeaderLinks.loanDetails": "Loan Details",
            "app.components.HeaderLinks.transactions": "Transactions",
            "app.components.HeaderLinks.upcomingPayments": "Upcoming Payments",
            "app.components.HeaderLinks.makeADraw": "Make A Draw",
            "app.components.HeaderLinks.estimatePayOff": "Estimate Pay-Off",
            "app.components.HeaderLinks.changePasswordIcon": "fa fa-lock fa-lg",
            "app.components.HeaderLinks.overviewIcon": "fa fa-user fa-lg",
            "app.components.HeaderLinks.toDoIcon": "fa fa-check-square-o fa-lg",
            "app.components.HeaderLinks.loanDetailsIcon": "fa fa-file-text fa-lg",
            "app.components.HeaderLinks.transactionsIcon": "fa fa-indent fa-lg",
            "app.components.HeaderLinks.upcomingPaymentsIcon": "fa fa-calendar fa-lg",
            "app.components.HeaderLinks.estimatePayOffIcon": "fa fa-chain fa-lg",
            "app.components.HeaderLinks.makePaymentIcon": "fa fa-money fa-lg",
            "app.components.HeaderLinks.makeADrawIcon": "fa fa-level-down fa-lg",
            "app.components.HeaderLinks.logOutIcon": "fa fa-lock fa-lg",
            "app.components.HeaderPhoneNumber.phoneNumber": "(855)-329-9922",
            "app.components.HeaderPhoneNumber.phoneFaviconClass": "fa fa-mobile",
            "app.components.HeaderRightPanel.signIn": "Sign In",
            "app.components.HeaderUserName.userNameIcon": "",
            "app.components.HeaderLogo.logoURL": "",
            "app.components.LoanDetailedView.principal": "Principal",
            "app.components.LoanDetailedView.financeCharge": "Finance Charge",
            "app.components.LoanDetailedView.fees": "Fees",
            "app.components.LoanDetailedView.total": "Total",
            "app.components.LoanDetailedView.paybackDetails": "Payback Details",
            "app.components.LoanDetailedView.paidDetails": "Paid Details",
            "app.components.LoanDetailedView.outstandingDetails": "Outstanding Details",
            "app.components.LoanDetailedView.expandImage": "",
            "app.components.LoanOverview.balance": "Balance",
            "app.components.LoanOverview.totalPayback": "Total Payback",
            "app.components.LoanOverview.amountPaid": "Amount Paid",
            "app.components.LoanOverview.totalOutstanding": "Total Outstanding",
            "app.components.LoanOverview.viewDetails": "View Details",
            "app.components.LoanOverview.payments": "Payments",
            "app.components.LoanOverview.last": "LAST",
            "app.components.LoanOverview.paymentMade": "Payment Made",
            "app.components.LoanOverview.amount": "Amount",
            "app.components.LoanOverview.next": "NEXT",
            "app.components.LoanOverview.paymentDue": "Payment Due",
            "app.components.LoanOverview.nextAmount": "Amount",
            "app.components.LoanOverview.makePayment": "Make Payment",
            "app.components.LoanOverview.terms": "Terms",
            "app.components.LoanOverview.fundedAmount": "Funded Amount",
            "app.components.LoanOverview.duration": "Duration",
            "app.components.LoanOverview.installment": "Installment",
            "app.components.LoanOverview.factor": "Factor",
            "app.components.LoanOverview.notAvailable": "N/A",
            "app.components.MakePaymentStatusBar.one": "1.",
            "app.components.MakePaymentStatusBar.two": "2.",
            "app.components.MakePaymentStatusBar.three": "3.",
            "app.components.MakePaymentStatusBar.payment": "Payment",
            "app.components.MakePaymentStatusBar.review": "Review",
            "app.components.MakePaymentStatusBar.thankYou": "Thank you",
            "app.components.MiscellaneousDocs.header": "Miscellaneous Documents",
            "app.components.OwnerDetail.firstNameLabel": "First Name",
            "app.components.OwnerDetail.firstNamePlaceholder": "First Name",
            "app.components.OwnerDetail.firstNameRequiredValidation": "First Name is required",
            "app.components.OwnerDetail.firstNameLengthValidation": "Field length must be between 2 and 100",
            "app.components.OwnerDetail.firstNameNumberSpecialCharacterValidation": "Numbers or special characters not allowed",
            "app.components.OwnerDetail.lastNameLabel": "Last Name",
            "app.components.OwnerDetail.lastNamePlaceholder": "Last Name",
            "app.components.OwnerDetail.lastNameRequiredValidation": "Last Name is required",
            "app.components.OwnerDetail.lastNameLengthValidation": "Field length must be between 2 and 100",
            "app.components.OwnerDetail.lastNameNumberSpecialCharacterValidation": "Numbers or special characters not allowed",
            "app.components.OwnerDetail.mobilePhoneLabel": "Mobile Phone",
            "app.components.OwnerDetail.mobilePlaceholder": "Mobile Phone #",
            "app.components.OwnerDetail.mobilePhoneRequiredValidation": "Mobile Phone is required",
            "app.components.OwnerDetail.mobilePhoneInvalid": "Invalid Primary Phone",
            "app.components.OwnerDetail.homeAddressLabel": "Home Address",
            "app.components.OwnerDetail.homeAddressPlaceholder": "Home Address",
            "app.components.OwnerDetail.homeAddressRequiredValidation": "Home address is required",
            "app.components.OwnerDetail.homeAddressLengthValidation": "Field length must be between 2 and 100",
            "app.components.OwnerDetail.emailAddressLabel": "Email Address",
            "app.components.OwnerDetail.emailAddressPlaceholder": "Email Address",
            "app.components.OwnerDetail.emailAddressRequiredValidation": "Email address is required",
            "app.components.OwnerDetail.emailAddressInvalid": "Invalid Email Address",
            "app.components.OwnerDetail.cityLabel": "City",
            "app.components.OwnerDetail.cityPlaceholder": "City",
            "app.components.OwnerDetail.cityRequiredValidation": "City is required",
            "app.components.OwnerDetail.cityLengthValidation": "Field length must be between 2 and 100",
            "app.components.OwnerDetail.cityNumberSpecialCharacterValidation": "Numbers or special characters not allowed",
            "app.components.OwnerDetail.stateLabel": "State",
            "app.components.OwnerDetail.statePlaceholder": "State",
            "app.components.OwnerDetail.stateRequiredValidation": "State is required",
            "app.components.OwnerDetail.postalCodeLabel": "Postal Code",
            "app.components.OwnerDetail.postalCodePlaceholder": "Postal Code",
            "app.components.OwnerDetail.postalCodeRequiredValidation": "Postal Code is required",
            "app.components.OwnerDetail.postalCodeInvalid": "Invalid Postal Code",
            "app.components.OwnerDetail.ownershipLabel": "% Ownership",
            "app.components.OwnerDetail.ownershipPlaceholder": "% Ownership",
            "app.components.OwnerDetail.ownershipRequiredValidation": "Ownership is required",
            "app.components.OwnerDetail.ownershipNumericValidation": "Ownership should be numeric value",
            "app.components.OwnerDetail.ownershipPositiveValidation": "Ownership should be positive value",
            "app.components.OwnerDetail.ownershipTotalValidation": "Ownership can not be more than 100%",
            "app.components.OwnerDetail.ownershipDecimalPlacesValidation": "Ownership % accepts maximum 2 decimal places",
            "app.components.OwnerDetail.ownershipCumulativeValidation": "Cumulative ownership for all owners can not be more than 100%",
            "app.components.OwnerDetail.ssnLabel": "Social Security Number",
            "app.components.OwnerDetail.ssnPlaceholder": "Social Security Number",
            "app.components.OwnerDetail.ssnRequiredValidation": "Social Security Number is required",
            "app.components.OwnerDetail.ssnInvalid": "Invalid Social Security Number",
            "app.components.OwnerDetail.dateOfBirthLabel": "Date Of Birth",
            "app.components.OwnerDetail.dateOfBirthRequiredValidation": "Date of birth is required",
            "app.components.OwnerDetail.dateOfBirthInvalid": "Invalid Date",
            "app.components.OwnerDetail.dateOfBirthAgeValidation": "Age must be greater than or equal to 18",
            "app.components.OwnerDetail.dateOfBirthFutureDateValidation": "Date of birth can not be a future date",
            "app.components.OwnerDetail.addAnotherOwnerButton": "+ Add another owner",
            "app.components.OwnerDetail.removeButton": "Remove",
            "app.components.OwnerDetail.ownerHeading": "Owner",
            "app.components.OwnerDetail.nextButton": "Next",
            "app.components.OwnerDetail.cancelButton": "Cancel",
            "app.components.PaymentCalculationShow.reviewFollowingInfo": "Please review the following information",
            "app.components.PaymentCalculationShow.paymentAmount": "Payment Amount",
            "app.components.PaymentCalculationShow.editPayment": "EDIT PAYMENT",
            "app.components.PaymentCalculationShow.paymentDate": "Payment Date",
            "app.components.PaymentCalculationShow.bankAccount": "Bank Account",
            "app.components.PaymentCalculationShow.confirmationMessage": "By Clicking the 'Submit' button, your're confirming you have reviewed and agreed to the pay by computer",
            "app.components.PaymentCalculationShow.termsAndCondition": "Terms & Conditions",
            "app.components.PaymentCalculationShow.cancelButton": "Cancel",
            "app.components.PaymentCalculationShow.submitButton": "Submit",
            "app.components.PaymentCalculationShow.popupHeader": "Terms & Conditions",
            "app.components.PaymentCalculationShow.popupBody": "Waiting for T&C",
            "app.components.PaymentCalculationShow.popupCloseButton": "Close",
            "app.components.PaymentCalculator.paymentAmount": "Payment Amount",
            "app.components.PaymentCalculator.payYourLoanOffInFull": "Pay your Loan off in full",
            "app.components.PaymentCalculator.nextPayment": "Next Payment",
            "app.components.PaymentCalculator.otherAmount": "Other amount",
            "app.components.PaymentCalculator.bankAccount": "Bank Account",
            "app.components.PaymentCalculator.paymentDate": "Payment Date",
            "app.components.PaymentCalculator.cancelButton": "Cancel",
            "app.components.PaymentCalculator.continueButton": "Continue",
            "app.components.PaymentSuccess.thankYou": "Thank You",
            "app.components.PaymentSuccess.payemtScheduled": "Your Payment has been Scheduled.",
            "app.components.PaymentSuccess.yourPaymentOf": "Your payment of",
            "app.components.PaymentSuccess.hasBeenReceived": "has been received.",
            "app.components.PaymentSuccess.plesseAllowTime": "Please allow 24 hours for your balance to show from your",
            "app.components.PaymentSuccess.institution": "institution.",
            "app.components.PaymentSuccess.makeAnotherPayment": "Make Another Payment",
            "app.components.PaymentSuccess.successTickImage": "",
            "app.components.PaymentSuccess.seperaterLineImg": "",
            "app.components.RequestDrawdown.header": "Make A Draw",
            "app.components.RequestDrawdown.amount": "Type the amount you would like to withdraw",
            "app.components.RequestDrawdown.amountRequiredValidation": "Draw amount is required",
            "app.components.RequestDrawdown.amountGreatherThanZeroValidation": "Draw amount must be greater than 0",
            "app.components.RequestDrawdown.drawButton": "Draw",
            "app.components.RightPanel.questionsHeader": "Questions?",
            "app.components.RightPanel.questionsBody": "We're here to answer any questions or take your application over the phone.",
            "app.components.RightPanel.phoneNumber": "855-329-9922",
            "app.components.RightPanel.emailSupport": "Email Support",
            "app.components.RightPanel.chatLive": "Chat Live",
            "app.components.RightPanel.aboutTenantHeader": "About Capital Alliance",
            "app.components.RightPanel.aboutTenantBody": "Capital Alliance was built by the same drive and passion that fuels our clients. We offer simple business loans up to $1 million.",
            "app.components.RightPanel.securityImage": "",
            "app.components.RightPanel.ratingImage": "",
            "app.components.Sidenav.welcome": "Welcome",
            "app.components.Sidenav.dashboard": "Dashboard",
            "app.components.Sidenav.overview": "Overview",
            "app.components.Sidenav.toDo": "To Do's",
            "app.components.Sidenav.loanDetails": "Loan Details",
            "app.components.Sidenav.transactions": "Transactions",
            "app.components.Sidenav.upcomingPayments": "Upcoming Payments",
            "app.components.Sidenav.makeADraw": "Make A Draw",
            "app.components.Sidenav.estimatePayOff": "Estimate Pay-Off",
            "app.components.Sidenav.profile": "Profile",
            "app.components.Sidenav.changePassword": "Change Password",
            "app.components.Sidenav.dashboardIcon": "fa fa-th-large fa-lg",
            "app.components.Sidenav.overviewIcon": "fa fa-user fa-lg",
            "app.components.Sidenav.toDoIcon": "fa fa-check-square-o fa-lg",
            "app.components.Sidenav.loanDetailsIcon": "fa fa-file-text fa-lg",
            "app.components.Sidenav.transactionsIcon": "fa fa-indent fa-lg",
            "app.components.Sidenav.upcomingPaymentsIcon": "fa fa-calendar fa-lg",
            "app.components.Sidenav.makeADrawIcon": "fa fa-level-down fa-lg",
            "app.components.Sidenav.estimatePayOffIcon": "fa fa-chain fa-lg",
            "app.components.Sidenav.profileIcon": "fa fa-user fa-lg",
            "app.components.Sidenav.changePasswordIcon": "fa fa-lock fa-lg",
            "app.components.SignDocument.header": "Sign Documents",
            "app.components.SignDocument.resendDocuSignEmail": "Resend Email",
            "app.components.SignDocument.status": "Status:",
            "app.components.SignDocument.docuSignImage": "",
            "app.components.TransactionPopupOpen.header": "Transactions  Details",
            "app.components.TransactionPopupOpen.transactionDate": "Transaction Date",
            "app.components.TransactionPopupOpen.description": "Description",
            "app.components.TransactionPopupOpen.paymentMadeDescription": "Payment made",
            "app.components.TransactionPopupOpen.transactionAmount": "Transaction Amount",
            "app.components.TransactionPopupOpen.principalPaid": "Principal Paid",
            "app.components.TransactionPopupOpen.financeChargePaid": "Finance Charge Paid",
            "app.components.TransactionPopupOpen.interestPaid": "Interest Paid",
            "app.components.TransactionPopupOpen.feesPaid": "Fees Paid",
            "app.components.Uploader.maxFileUploadValidation": "Maximum 12 files can be uploaded at a time",
            "app.components.Uploader.fileFormatValidation": "Upload only PDF/JPG/PNG file",
            "app.components.Uploader.maxFileSizeValidation": "Maximum file size is 5MB",
            "app.containers.ChangePassword.information": "This will send reset password link to registered email address.",
            "app.containers.ChangePassword.resetPasswordButton": "Reset Password",
            "app.containers.Dashboard.header": "Application List",
            "app.containers.Dashboard.applicationNumber": "Application Number",
            "app.containers.Dashboard.loanNumber": "Loan Number",
            "app.containers.Dashboard.applicationDate": "Application Date",
            "app.containers.Dashboard.businessName": "Business Name",
            "app.containers.Dashboard.notAvailable": "N/A",
            "app.containers.Dashboard.view": "view",
            "app.containers.Dashboard.noAppAvailable": "No applications available",
            "app.containers.EstimatePayOff.header": "Estimate Pay-Off",
            "app.containers.EstimatePayOff.calculateButton": "Calculate",
            "app.containers.EstimatePayOff.checkBoxText": "Assume Schedule payments will be paid",
            "app.containers.ForgotPassword.header": "Forgot Password",
            "app.containers.ForgotPassword.usernamePlaceholder": "Email Address",
            "app.containers.ForgotPassword.usernameLabel": "Email Address",
            "app.containers.ForgotPassword.usernameRequiredValidation": "Email Address is required",
            "app.containers.ForgotPassword.usernameInvalid": "Invalid Email Address",
            "app.containers.ForgotPassword.submitButton": "Submit",
            "app.containers.Home.serviceError": "Unable to process your request currently. Please contact customer success manager Jes Pineda (jpineda@capitalalliance.com) OR call us +1 855-329-9922 for further support.",
            "app.containers.Home.header": "New Application",
            "app.containers.Home.basicTab": "Basic",
            "app.containers.Home.businessTab": "Business",
            "app.containers.Home.ownerTab": "Owner",
            "app.containers.Home.finishTab": "Finish",
            "app.containers.Home.emailAddressExist": "Email Address Already Exists.",
            "app.containers.Home.passwordError": "Your password must be eight characters including one uppercase letter, one special character and alphanumeric characters.",
            "app.containers.LoanDetail.header": "Loan Details",
            "app.containers.Login.header": "Login",
            "app.containers.Login.usernamePlaceholder": "Email Address",
            "app.containers.Login.usernameLabel": "Email Address",
            "app.containers.Login.usernameRequiredValidation": "Email Address is required",
            "app.containers.Login.usernameInvalid": "Invalid Email Address",
            "app.containers.Login.passwordLabel": "Password",
            "app.containers.Login.passwordPlaceholder": "Password",
            "app.containers.Login.passwordRequiredValidation": "Password is required",
            "app.containers.Login.passwordLengthValidation": "Field length must be between 5 and 20",
            "app.containers.Login.forgotPassword": "Forgot Password?",
            "app.containers.Login.rememberMe": "Remember Me",
            "app.containers.Login.loginButton": "Log In",
            "app.containers.MakePayment.header": "Payment",
            "app.containers.MakePayment.noPendingPayment": "There is no pending payments.",
            "app.containers.Overview.header": "Application Details",
            "app.containers.Overview.basic": "Basic",
            "app.containers.Overview.business": "Business",
            "app.containers.Overview.owner": "Owner",
            "app.containers.Overview.finish": "Finish",
            "app.containers.Overview.firstNameLabel": "First Name",
            "app.containers.Overview.lastNameLabel": "Last Name",
            "app.containers.Overview.primaryPhoneLabel": "Primary Phone",
            "app.containers.Overview.emailAddressLabel": "Username",
            "app.containers.Overview.requestedAmountLabel": "How much do you need?",
            "app.containers.Overview.loanTimeFrame": "How soon do you need it?",
            "app.containers.Overview.purposeOfFund": "Purpose of funds?",
            "app.containers.Overview.legalCompanyNameLabel": "Legal Company Name",
            "app.containers.Overview.dba": "DBA",
            "app.containers.Overview.businessAddressLabel": "Business Address",
            "app.containers.Overview.cityLabel": "City",
            "app.containers.Overview.stateLabel": "State",
            "app.containers.Overview.postalCodeLabel": "Postal Code",
            "app.containers.Overview.mobilePhone": "Mobile Phone",
            "app.containers.Overview.rentOrOwn": "Rent Or Own this location?",
            "app.containers.Overview.industry": "Industry",
            "app.containers.Overview.businessTaxIdLabel": "Business Tax ID",
            "app.containers.Overview.dateOfBirthLabel": "Date Established",
            "app.containers.Overview.entityType": "Entity Type",
            "app.containers.Overview.homeAddress": "Home Address",
            "app.containers.Overview.percentageOfOwnership": "% of Ownership",
            "app.containers.Overview.ssn": "Social Security Number",
            "app.containers.Overview.ownerEmailAddress": "Email Address",
            "app.containers.Overview.birthdate": "Birthdate",
            "app.containers.Overview.annualRevenueLabel": "Annual Revenue",
            "app.containers.Overview.averageBankBalanceLabel": "Average Bank Balance",
            "app.containers.Overview.doYouHaveLoan": "Do you have any existing business loans or cash advance?",
            "app.containers.Overview.signatureLabel": "Signature",
            "app.containers.Overview.dateNeeedLabel": "Date Needed",
            "app.containers.Overview.addressTypeLabel": "Address Type",
            "app.containers.Overview.completeYourTodo": "Complete your To Do's",
            "app.containers.Overview.complete": "Complete",
            "app.containers.Overview.notAvailable": "N/A",
            "app.containers.Profile.firstNameLabel": "First Name",
            "app.containers.Profile.firstNamePlaceholder": "First Name",
            "app.containers.Profile.lastNameLabel": "Last Name",
            "app.containers.Profile.lastNamePlaceholder": "Last Name",
            "app.containers.Profile.mobilePhoneLabel": "Mobile Phone",
            "app.containers.Profile.mobilePlaceholder": "Mobile Phone #",
            "app.containers.Profile.dateOfBirthLabel": "Date Of Birth",
            "app.containers.Profile.dateOfBirthPlaceholder": "Date Of Birth",
            "app.containers.Profile.emailAddressLabel": "Email Address",
            "app.containers.Profile.emailAddressPlaceholder": "Email Address",
            "app.containers.Profile.cityLabel": "City",
            "app.containers.Profile.cityPlaceholder": "City",
            "app.containers.Profile.streetLabel": "Street",
            "app.containers.Profile.streetPlaceholder": "Street",
            "app.containers.Profile.postalCodeLabel": "Postal Code",
            "app.containers.Profile.postalCodePlaceholder": "Postal Code",
            "app.containers.ResetAccount.header": "Reset Password",
            "app.containers.ResetAccount.passwordPlaceholder": "New Password",
            "app.containers.ResetAccount.passwordLabel": "New Password",
            "app.containers.ResetAccount.passwordRequiredValidation": "New Password is required",
            "app.containers.ResetAccount.passwordLengthValidation": "Field length must be between 5 and 20",
            "app.containers.ResetAccount.confirmPasswordPlaceholder": "Confirm Password",
            "app.containers.ResetAccount.confirmPasswordLabel": "Confirm Password",
            "app.containers.ResetAccount.confirmPasswordRequiredValidation": "Confirm Password is required",
            "app.containers.ResetAccount.confirmPasswordLengthValidation": "Field length must be between 5 and 20",
            "app.containers.ResetAccount.submitButton": "Submit",
            "app.containers.ResetAccount.passwordNotMatchMessage": "Password and Confirm Password should match",
            "app.containers.ResetAccount.successMessage": "Password updated successfully",
            "app.containers.ResetAccount.errorMessage": "Unable to process your request currently. Please contact customer success manager Jes Pineda (jpineda@capitalalliance.com) OR call us +1 855-329-9922 for further support",
            "app.containers.ResetAccount.noteMessage": "Note: Your password must be eight characters including one uppercase letter, one special character and alphanumeric characters",
            "app.containers.TermsAndConditions.header": "Terms and Conditions",
            "app.containers.TermsAndConditions.mainBody": "By signing below, each of the listed business and business owners/officers (individually and collectively, “you”) authorize Capital Alliance Group (“CAG”) and each of its representatives, successors, assigns and designees (“Recipients”) that may be involved with or acquire commercial loans having daily repayment features or purchases of future receivables, including without limitation the application therefore (collectively, “Transactions”) to obtain consumer or personal, business and investigative reports and other information about you, including credit card processor statements and bank statements, from one or more consumer reporting agencies, such as Transunion, Experian and Equifax, and from other credit bureaus, banks, creditors and other third parties. You also authorize CAG to transmit this application form, along with any of the foregoing information obtained in connection with this application, to any or all of the Recipients for the foregoing purposes. You also consent to the release, by any creditor or financial institution, of any information relating to any of you, to CAG and to each of the Recipients, on its own behalf. Each Applicant represents they are authorized to sign this application and agrees to do business with CAG electronically, and that electronic signatures on this application and any other documents have the same legal effect as if Applicant has signed in ink. Applicant authorizes CAG to contact you using any of the telephone numbers and/or email addresses listed on this credit application or that you subsequently provide us in connection with your account.",
            "app.containers.ToDo.doItLaterButton": "I'll do it later",
            "app.containers.Transactions.header": "Transactions",
            "app.containers.Transactions.transactionDate": "Transaction Date",
            "app.containers.Transactions.description": "Description",
            "app.containers.Transactions.amount": "Amount",
            "app.containers.Transactions.view": "View",
            "app.containers.Transactions.noTransactionAvailable": "No transaction available",
            "app.containers.Transactions.paymentMadeDescription": "Payment made",
            "app.containers.UpcomingPayment.header": "Upcoming Payments",
            "app.containers.UpcomingPayment.scheduleDate": "Schedule Date",
            "app.containers.UpcomingPayment.scheduleAmount": "Schedule Amount",
            "app.containers.UpcomingPayment.principal": "Principal",
            "app.containers.UpcomingPayment.financeCharge": "Finance Charge",
            "app.containers.UpcomingPayment.interest": "Interest",
            "app.containers.UpcomingPayment.status": "Status",
            "app.containers.UpcomingPayment.noDataAvailable": "Upcoming Payments Not Available.",
            "app.containers.UpcomingPayment.successImage": "",
            "app.containers.UpcomingPayment.pendingImage": "",
            "app.containers.App.title": "Capital Alliance",
            "app.containers.App.favicon": ""
        }
    }
}
