  {
  "Bankruptcy": {
    "BankruptcyFCRAUrl": "http://{{internal_ip}}:7022/bankruptcyfcrareport",
    "FCRAUserName": "{{FCRAUserName}}",
    "FCRAPassword": "{{FCRAPassword}}",
    "BankruptcyNonFCRAUrl": "http://{{internal_ip}}:7022/bankruptcy",
    "NonFCRAUserName": "{NonFCRAUserName}",
    "NonFCRAPassword": "{{NonFCRAPassword}}",
    "EndUser": {
      "ReferenceCode": "",
      "BillingCode": "",
      "QueryId": "",
      "GLBPurpose": "3",
      "DLPurpose": "1",
      "MaxWaitSeconds": 10000,
      "AccountNumber": "AccountNumber",
      "EndUser": {
        "City": "",
        "CompanyName": "",
        "State": "",
        "StreetAddress1": "",
        "Zip5": ""
      }
    },
    "Options": {
      "FCRAPurpose": "1",
      "ReturnCount": "10",
      "StartingRecord": "1"
    }
  },
  "CriminalRecord": {
    "CriminalRecordUrl": "http://{{internal_ip}}:7022/criminalrecord",
    "UserName": "{{UserName}}",
    "Password": "{{Password}}",
    "EndUser": {
      "ReferenceCode": "",
      "BillingCode": "",
      "QueryId": "",
      "GLBPurpose": "3",
      "DLPurpose": "1",
      "MaxWaitSeconds": 10000,
      "AccountNumber": "AccountNumber",
      "EndUser": {
        "City": "",
        "CompanyName": "",
        "State": "",
        "StreetAddress1": "",
        "Zip5": ""
      }
    },
    "Options": {
      "FCRAPurpose": "1",
      "ReturnCount": "10",
      "StartingRecord": "1"
    }
  }
}
  
  

   
     