{
  "metrics": {
    "FilterDataUpdated": {
      "EntityType": "application",
      "ApplicationNumber": "{Data.Data.ApplicationNumber}",
      "TenantId": "{TenantId}",
      "OriginalEventName": "{Data.EventName}",
      "ProductId": "{Data.Data.ProductId}",
      "EventMetric": {
        "ApplicationCreated": {
          "RuleName": "MetricGenerationDataExtractionRule",
          "Metrics": [
            {
              "MetricName": "ApplicationPartnerIdMetric",
              "Dimensions": [
                "PartnerId",
                "ApplicationDate"
              ],
              "Facts": [
                {
                  "Name": "ApplicationCount",
                  "Operation": "Increment"
                }
              ]
            },
            {
              "MetricName": "ApplicationPurposeOfLoanMetric",
              "Dimensions": [
                "PurposeOfLoan",
                "ApplicationDate"
              ],
              "Facts": [
                {
                  "Name": "ApplicationCount",
                  "Operation": "Increment"
                }
              ]
            },
            {
              "MetricName": "ApplicationBusinessTypeMetric",
              "Dimensions": [
                "BusinessType",
                "ApplicationDate"
              ],
              "Facts": [
                {
                  "Name": "ApplicationCount",
                  "Operation": "Increment"
                }
              ]
            },
            {
              "MetricName": "ApplicationIndustryTypeMetric",
              "Dimensions": [
                "IndustryType",
                "ApplicationDate"
              ],
              "Facts": [
                {
                  "Name": "applicationCount",
                  "Operation": "Increment"
                }
              ]
            },
            {
              "MetricName": "ApplicationZipCodeMetric",
              "Dimensions": [
                "ZipCode",
                "ApplicationDate"
              ],
              "Facts": [
                {
                  "Name": "applicationCount",
                  "Operation": "Increment"
                }
              ]
            }
          ]
        },
        "ApplicationFunded": {
          "RuleName": "MetricGenerationDataExtractionRule",
          "Metrics": [
            {
              "MetricName": "FundingPartnerIdMetric",
              "Dimensions": [
                "PartnerId",
                "FundingDate"
              ],
              "Facts": [
                {
                  "Name": "FundedAmount",
                  "Operation": "Sum"
                },
                {
                  "Name": "CommissionAmount",
                  "Operation": "Sum"
                },
                {
                  "Name": "OriginatingFeeAmount",
                  "Operation": "Sum"
                },
                {
                  "Name": "ApprovedAmount",
                  "Operation": "Sum"
                },
                {
                  "Name": "FundedApplicationCount",
                  "Operation": "Increment"
                }
              ]
            },
            {
              "MetricName": "FundingPurposeOfLoanMetric",
              "Dimensions": [
                "PurposeOfLoan",
                "FundingDate"
              ],
              "Facts": [
                {
                  "Name": "FundedAmount",
                  "Operation": "Sum"
                },
                {
                  "Name": "CommissionAmount",
                  "Operation": "Sum"
                },
                {
                  "Name": "FundedApplicationCount",
                  "Operation": "Increment"
                }
              ]
            },
            {
              "MetricName": "FundingBusinessTypeMetric",
              "Dimensions": [
                "BusinessType",
                "FundingDate"
              ],
              "Facts": [
                {
                  "Name": "FundedAmount",
                  "Operation": "Sum"
                },
                {
                  "Name": "CommissionAmount",
                  "Operation": "Sum"
                },
                {
                  "Name": "FundedApplicationCount",
                  "Operation": "Increment"
                }
              ]
            },
            {
              "MetricName": "FundingIndustryTypeMetric",
              "Dimensions": [
                "IndustryType",
                "FundingDate"
              ],
              "Facts": [
                {
                  "Name": "FundedAmount",
                  "Operation": "Sum"
                },
                {
                  "Name": "CommissionAmount",
                  "Operation": "Sum"
                },
                {
                  "Name": "FundedApplicationCount",
                  "Operation": "Increment"
                }
              ]
            },
            {
              "MetricName": "FundingZipCodeMetric",
              "Dimensions": [
                "ZipCode",
                "FundingDate"
              ],
              "Facts": [
                {
                  "Name": "FundedAmount",
                  "Operation": "Sum"
                },
                {
                  "Name": "CommissionAmount",
                  "Operation": "Sum"
                },
                {
                  "Name": "FundedApplicationCount",
                  "Operation": "Increment"
                }
              ]
            }
          ]
        },
        "ApplicationRejected": {
          "RuleName": "MetricGenerationDataExtractionRule",
          "Metrics": [
            {
              "MetricName": "ApplicationRejctionMetric",
              "Dimensions": [
                "DeclineReason",
                "ApplicationDate"
              ],
              "Facts": [
                {
                  "Name": "ApplicationCount",
                  "Operation": "Increment"
                }
              ]
            }
          ]
        }
      }
    }
  },
  "MongoConfiguration": {
    "ConnectionString": "{{mongo_connectionstring}}",
    "Database": "metric-collector"
  }
}