{
  "Events": [
    {
      "Name": "PartnerAdded",
      "PartnerId": "{Data.Partner.PartnerId}"
    },
    {
      "Name": "PartnerUpdated",
      "PartnerId": "{Data.Partner.PartnerId}"
    }
  ]
}