{
    "facts": {
        "mca": {
            "ApplicationApprovalFlow": [
                {
                    "Name": "BankVerification",
                    "IsSecondaryEnable": false,
                    "Methods": [
                        {
                            "Name": "BankVerificationManual",
                            "Sources": [
                                {
                                    "Type": "Form",
                                    "Name": "BankVerificationManual",
                                    "Settings": {
                                        "DocumentRequired": "Voided Check",
                                        "Category": "voidedcheck"
                                    },
                                    "SaveToDataAttribute": "BankVerificationData"
                                }
                            ],
                            "GroupName": "BankVerification"
                        }
                    ]
                },
                {
                    "Name": "IDVerification",
                    "IsSecondaryEnable": false,
                    "Methods": [
                        {
                            "Name": "IDVerificationManual",
                            "Sources": [
                                {
                                    "Type": "Form",
                                    "Name": "IDVerificationManual",
                                    "Settings": {
                                        "DocumentRequired": "Photo ID",
                                        "Category": "photoid"
                                    },
                                    "SaveToDataAttribute": "IDVerificationData"
                                }
                            ],
                            "GroupName": "IDVerification"
                        }
                    ]
                },
                {
                    "Name": "BusinessTaxIdVerification",
                    "IsSecondaryEnable": false,
                    "Methods": [
                        {
                            "Name": "BusinessTaxIdVerification",
                            "Sources": [
                                {
                                    "Name": "DataMerchVerification",
                                    "Type": "Syndication",
                                    "Settings": {}
                                }
                            ],
                            "InitiateReviewonFailure": true,
                            "GroupName": "BusinessTaxIdVerification"
                        },
                        {
                            "Name": "BusinessTaxIdVerificationManual",
                            "Sources": [
                                {
                                    "Name": "BusinessTaxIdVerificationManual",
                                    "Type": "Form",
                                    "Settings": {},
                                    "SaveToDataAttribute": "businessTaxIdVerificationManualData"
                                }
                            ],
                            "IsReviewMethod": true,
                            "GroupName": "BusinessTaxIdVerification"
                        }
                    ]
                },
                {
                    "Name": "CashflowVerification",
                    "IsSecondaryEnable": false,
                    "Methods": [
                        {
                            "Name": "CashflowVerification",
                            "Sources": [
                                {
                                    "Name": "CashflowVerification",
                                    "Type": "Syndication",
                                    "Settings": {},
                                    "SaveToDataAttribute": "CashflowVerificationData"
                                }
                            ],
                            "GroupName": "CashflowVerification"
                        }
                    ]
                },
                {
                    "Name": "BankruptcyVerification",
                    "IsSecondaryEnable": true,
                    "Methods": [
                        {
                            "Name": "BankruptcyVerification",
                            "Sources": [
                                {
                                    "Name": "BankruptcyVerification",
                                    "Type": "Syndication",
                                    "Settings": {}
                                }
                            ],
                            "GroupName": "BankruptcyVerification"
                        },
                        {
                            "Name": "BankruptcyVerificationManual",
                            "Sources": [
                                {
                                    "Name": "BankruptcyVerificationManual",
                                    "Type": "Form",
                                    "Settings": {},
                                    "SaveToDataAttribute": "bankruptcyVerificationData"
                                }
                            ],
                            "GroupName": "BankruptcyVerification"
                        }
                    ]
                },
                {
                    "Name": "BusinessCreditRiskVerification",
                    "IsSecondaryEnable": false,
                    "IsOptional": true,
                    "Methods": [
                        {
                            "Name": "BusinessCreditRiskVerification",
                            "Sources": [
                                {
                                    "Name": "BusinessCreditRiskVerification",
                                    "Type": "Syndication",
                                    "Settings": {}
                                }
                            ],
                            "InitiateReviewonFailure": true,
                            "GroupName": "BusinessCreditRiskVerification"
                        },
                        {
                            "Name": "BusinessCreditRiskVerificationManual",
                            "Sources": [
                                {
                                    "Name": "BusinessCreditRiskVerificationManual",
                                    "Type": "Review",
                                    "Settings": {},
                                    "SaveToDataAttribute": "businessCreditRiskVerificationManualData"
                                }
                            ],
                            "IsReviewMethod": true,
                            "GroupName": ""
                        }
                    ]
                },
                {
                    "Name": "BusinessAddressVerification",
                    "IsSecondaryEnable": false,
                    "Methods": [
                        {
                            "Name": "BusinessAddressVerification",
                            "Sources": [
                                {
                                    "Name": "BusinessAddressVerification",
                                    "Type": "Syndication",
                                    "Settings": {}
                                }
                            ],
                            "GroupName": "BusinessAddressVerification"
                        }
                    ]
                },
                {
                    "Name": "WelcomeCallVerification",
                    "IsSecondaryEnable": true,
                    "Methods": [
                        {
                            "Name": "WelcomeCallVerification",
                            "Sources": [
                                {
                                    "Name": "WelcomeCallVerification",
                                    "Type": "Form",
                                    "Settings": {},
                                    "SaveToDataAttribute": "WelcomeCallVerificationData"
                                }
                            ],
                            "GroupName": "WelcomeCallVerification"
                        }
                    ]
                },
                {
                    "Name": "MerchantStatementVerification",
                    "IsSecondaryEnable": false,
                    "Methods": [
                        {
                            "Name": "MerchantStatementVerification",
                            "Sources": [
                                {
                                    "Name": "MerchantStatementVerification",
                                    "Type": "Form",
                                    "Settings": {
                                        "DocumentRequired": "Merchant Statement",
                                        "Category": "merchantstatement"
                                    },
                                    "SaveToDataAttribute": "merchantStatementVerificationData"
                                }
                            ],
                            "GroupName": "MerchantStatementVerification"
                        }
                    ]
                },
                {
                    "Name": "ProofOfPropertyOwnerShipVerification",
                    "IsSecondaryEnable": false,
                    "Methods": [
                        {
                            "Name": "ProofOfPropertyOwnerShipVerification",
                            "Sources": [
                                {
                                    "Type": "Form",
                                    "Name": "ProofOfPropertyOwnerShipVerification",
                                    "Settings": {
                                        "DocumentRequired": "Proof Of Property Ownership",
                                        "Category": "proofofpropertyownership"
                                    },
                                    "SaveToDataAttribute": "ProofOfPropertyOwnerShipManualData"
                                }
                            ],
                            "GroupName": "ProofOfPropertyOwnerShipVerification"
                        }
                    ]
                },
                {
                    "Name": "SignedDocumentVerification",
                    "IsSecondaryEnable": true,
                    "Methods": [
                        {
                            "Name": "SignedDocumentVerificationManual",
                            "Sources": [
                                {
                                    "Type": "Form",
                                    "Name": "SignedDocumentVerificationManual",
                                    "Settings": {
                                        "DocumentRequired": "Signed Agreement",
                                        "Category": "signeddocument"
                                    },
                                    "SaveToDataAttribute": "SignedDocManualData"
                                }
                            ],
                            "GroupName": "SignedDocumentVerification"
                        }
                    ]
                },
                {
                    "Name": "SearchVerification",
                    "IsSecondaryEnable": false,
                    "Methods": [
                        {
                            "Name": "SearchVerification",
                            "Sources": [
                                {
                                    "Type": "Form",
                                    "Name": "SearchVerification",
                                    "Settings": {},
                                    "SaveToDataAttribute": "SearchVerificatioManualData"
                                }
                            ],
                            "GroupName": "SearchVerification"
                        }
                    ]
                },
                {
                    "Name": "TimeInBusinessVerification",
                    "IsSecondaryEnable": false,
                    "Methods": [
                        {
                            "Name": "TimeInBusinessVerification",
                            "Sources": [
                                {
                                    "Name": "EligibilityChecked",
                                    "Type": "Syndication",
                                    "Settings": {}
                                }
                            ],
                            "InitiateReviewonFailure": true,
                            "GroupName": "TimeInBusinessVerification"
                        },
                        {
                            "Name": "TimeInBusinessVerificationManual",
                            "Sources": [
                                {
                                    "Name": "TimeInBusinessVerificationManual",
                                    "Type": "Review",
                                    "Settings": {},
                                    "SaveToDataAttribute": "timeInBusinessVerificationData"
                                }
                            ],
                            "IsReviewMethod": true,
                            "GroupName": "TimeInBusinessVerification"
                        }
                    ]
                },
                {
                    "Name": "RestrictedIndustryVerification",
                    "IsSecondaryEnable": false,
                    "Methods": [
                        {
                            "Name": "RestrictedIndustryVerification",
                            "Sources": [
                                {
                                    "Name": "EligibilityChecked",
                                    "Type": "Syndication",
                                    "Settings": {}
                                }
                            ],
                            "InitiateReviewonFailure": true,
                            "GroupName": "RestrictedIndustryVerification"
                        },
                        {
                            "Name": "RestrictedIndustryVerificationManual",
                            "Sources": [
                                {
                                    "Name": "RestrictedIndustryVerificationManual",
                                    "Type": "Review",
                                    "Settings": {},
                                    "SaveToDataAttribute": "restrictedIndustryVerificationData"
                                }
                            ],
                            "IsReviewMethod": true,
                            "GroupName": "RestrictedIndustryVerification"
                        }
                    ]
                },
                {
                    "Name": "AnnualRevenueVerification",
                    "IsSecondaryEnable": false,
                    "Methods": [
                        {
                            "Name": "AnnualRevenueVerification",
                            "Sources": [
                                {
                                    "Name": "EligibilityChecked",
                                    "Type": "Syndication",
                                    "Settings": {}
                                }
                            ],
                            "InitiateReviewonFailure": true,
                            "GroupName": "AnnualRevenueVerification"
                        },
                        {
                            "Name": "AnnualRevenueVerificationManual",
                            "Sources": [
                                {
                                    "Name": "AnnualRevenueVerificationManual",
                                    "Type": "Review",
                                    "Settings": {},
                                    "SaveToDataAttribute": "annualRevenueVerificationData"
                                }
                            ],
                            "IsReviewMethod": true,
                            "GroupName": "AnnualRevenueVerification"
                        }
                    ]
                },
                {
                    "Name": "PscoreVerification",
                    "IsSecondaryEnable": false,
                    "Methods": [
                        {
                            "Name": "PscoreVerification",
                            "Sources": [
                                {
                                    "Name": "PScoreAttributes",
                                    "Type": "Syndication",
                                    "Settings": {}
                                }
                            ],
                            "GroupName": "PscoreVerification"
                        }
                    ]
                }
            ]
        }
    },
    "events": [
        {
            "Name": "EligibilityChecked",
            "SyndicationName": "EligibilityChecked",
            "EntityId": "{Data.EntityId}",
            "Response": "{Data.Response}",
            "EntityType": "{Data.EntityType}",
            "ReferenceNumber": "{Data.ReferenceNumber}"
        },
        {
            "Name": "ApplicationDatamerchReportDataAttributeSet",
            "SyndicationName": "DataMerchVerification",
            "EntityId": "{Data.Attribute.EntityId}",
            "Response": "{Data.Attribute.Value}",
            "EntityType": "{Data.Attribute.EntityType}",
            "ReferenceNumber": "{Data.Attribute.Value.referenceNumber}"
        },
        {
            "Name": "CashflowVerification",
            "SyndicationName": "CashflowVerification",
            "EntityId": "{Data.EntityId}",
            "Response": "{Data.Response}",
            "EntityType": "{Data.EntityType}",
            "ReferenceNumber": "{Data.ReferenceNumber}"
        },
        {
            "Name": "ApplicationBankruptcyReportRecordsDataAttributeSet",
            "SyndicationName": "BankruptcyVerification",
            "EntityId": "{Data.Attribute.EntityId}",
            "Response": "{Data.Attribute.Value}",
            "EntityType": "{Data.Attribute.EntityType}",
            "ReferenceNumber": "{Data.Attribute.Value[0].referenceNumber}"
        },
        {
            "Name": "ExperianBusinessReportFetched",
            "SyndicationName": "BusinessCreditRiskVerification",
            "EntityId": "{Data.EntityId}",
            "Response": "{Data.Response}",
            "EntityType": "{Data.EntityType}",
            "ReferenceNumber": "{Data.ReferenceNumber}"
        },
        {
            "Name": "ApplicationPScore_AttributesDataAttributeSet",
            "SyndicationName": "PScoreAttributes",
            "EntityId": "{Data.Attribute.EntityId}",
            "Response": "{Data.Attribute.Value}",
            "EntityType": "{Data.Attribute.EntityType}",
            "ReferenceNumber": "{Data.Attribute.EntityId}"
        },
        {
            "Name": "ApplicationWhitepageReportDataAttributeSet",
            "SyndicationName": "BusinessAddressVerification",
            "EntityId": "{Data.Attribute.EntityId}",
            "Response": "{Data.Attribute.Value}",
            "EntityType": "{Data.Attribute.EntityType}",
            "ReferenceNumber": "{Data.Attribute.Value.referenceNumber}"
        }
    ],
    "SecondaryKeyEnable": true,
    "SecondaryRuleName": "PrimaryOwnerBasedOnBankruptcy"
}