{
    "XA": "Closure Status",
    "XB": "Account information disputed",
    "XC": "Completed investigation and consumer disagrees",
    "XD": "Account closed and is in dispute",
    "XE": "Account closed and dispute investigation completed and customer disagrees",
    "XR": "Remove most recently reported compliance code"
}