{
    "DefaultStatusFlow": "LoanWorkFlow",
    "Currency": "Dollar",
	"IsCashBalanceLinked": false,
    "statuses": {
        "Created": "200.10",
        "InService": "200.20",
        "PaidOff": "200.30",
        "ChargeOff": "200.40",
        "SellOff": "200.50",
        "Closed": "200.60"
    },
    "events": [
        {
            "Name": "ChargeOff",
            "LoanNumber": "{Data.LoanNumber}",
            "Response": "{Data.Response}",
            "EntityType": "loan",
            "IsStatusChange": true
        },
        {
            "Name": "SellOff",
            "LoanNumber": "{Data.LoanNumber}",
            "Response": "{Data.Response}",
            "EntityType": "loan",
            "IsStatusChange": true
        },
        {
            "Name": "PaidOff",
            "LoanNumber": "{Data.LoanNumber}",
            "Response": "{Data.Response}",
            "EntityType": "loan",
            "IsStatusChange": true
        },
        {
            "Name": "InService",
            "LoanNumber": "{Data.LoanNumber}",
            "Response": "{Data.Response}",
            "EntityType": "loan",
            "IsStatusChange": true
        },
        {
            "Name": "FailedPayment",
            "LoanNumber": "{Data.LoanNumber}",
            "Response": "{Data.SuccessiveFailCount}",
            "EntityType": "loan",
            "IsStatusChange": false
        }
    ],
    "ScheduleHolidays" : true
}